Os09g0344500	9	complement(10740343..10741908)	1,54	-9,11	-554,46	1,78E-05	0,00619	0,64	S1 vs. S2
Os03g0181550	3	complement(4267130..4271539)	1,24	-8,9	-477,71	6,18E-06	0,0027	0,22	S1 vs. S2
Os01g0348900	1	complement(13903285..13904626)	17,98	-8,59	-385,9	2,85E-14	2,56E-10	1,02E-09	S1 vs. S2
Os11g0126900	11	1233932..1235977	9,05	-7,31	-159,23	2,48E-12	9,87E-09	8,89E-08	S1 vs. S2
Os06g0720601	6	30604158..30610509	0,3	-7,12	-139,24	2,4E-05	0,0073	0,86	S1 vs. S2
Os07g0684800	7	complement(29040452..29042297)	1,37	-6,79	-110,46	8,99E-07	0,000597	0,03	S1 vs. S2
Os02g0288600	2	complement(10897250..10897969)	1,79	-6,22	-74,39	3,74E-10	9,57E-07	1,34E-05	S1 vs. S2
Os11g0170900	11	complement(3463917..3467995)	1,09	-6,12	-69,33	8,5E-09	1,33E-05	0,000305	S1 vs. S2
Os11g0255300	11	complement(8379344..8382036)	5,44	-6,05	-66,21	3,37E-12	1,1E-08	1,21E-07	S1 vs. S2
Os03g0826800	3	complement(34733490..34734706)	0,73	-6,02	-65,05	2,9E-06	0,00154	0,1	S1 vs. S2
Os04g0344100	4	complement(16349941..16354016)	1,15	-5,83	-56,91	2,34E-07	0,00019	0,00837	S1 vs. S2
Os06g0696600	6	29144888..29146522	1,59	-5,25	-37,94	1,06E-05	0,004	0,38	S1 vs. S2
Os11g0530600	11	complement(19277597..19281006)	0,33	-5,06	-33,4	2,39E-05	0,0073	0,86	S1 vs. S2
Os03g0216700	3	complement(6131846..6142781)	0,89	-4,92	-30,23	1,53E-13	9,13E-10	5,48E-09	S1 vs. S2
Os07g0607400	7	complement(24961190..24964182)	0,28	-4,86	-29,01	3,51E-05	0,00967	1	S1 vs. S2
Os02g0636700	2	complement(25527702..25529056)	0,63	-4,82	-28,3	7,25E-06	0,00301	0,26	S1 vs. S2
Os03g0183000	3	complement(4348736..4350531)	0,62	-4,41	-21,23	3,05E-12	1,09E-08	1,09E-07	S1 vs. S2
Os03g0198600	3	complement(5180779..5182185)	1,35	-4,2	-18,39	5,97E-06	0,00264	0,21	S1 vs. S2
Os06g0517700	6	complement(18955486..18956519)	34,28	-4,12	-17,35	0	0	0	S1 vs. S2
Os05g0355400	5	16859727..16860956	1,07	-4,04	-16,44	5,44E-08	5,57E-05	0,00195	S1 vs. S2
Os01g0132000	1	complement(1760310..1761065)	8,26	-3,98	-15,75	1,15E-12	5,86E-09	4,1E-08	S1 vs. S2
Os11g0684000	11	complement(27670321..27673334)	1,22	-3,91	-15	3,16E-09	6,65E-06	0,000113	S1 vs. S2
Os12g0123700	12	1139026..1141362	4,99	-3,86	-14,5	4,54E-06	0,00214	0,16	S1 vs. S2
Os08g0290700	8	11607393..11608814	0,81	-3,7	-13,04	5,7E-06	0,00255	0,2	S1 vs. S2
Os01g0191900	12	complement(23135061..23137352)	0,58	-3,64	-12,45	4,59E-06	0,00214	0,16	S1 vs. S2
Os01g0850400	12	complement(23135061..23137352)	0,58	-3,64	-12,45	4,59E-06	0,00214	0,16	S1 vs. S2
Os01g0874300	12	complement(23135061..23137352)	0,58	-3,64	-12,45	4,59E-06	0,00214	0,16	S1 vs. S2
Os02g0641300	12	complement(23135061..23137352)	0,58	-3,64	-12,45	4,59E-06	0,00214	0,16	S1 vs. S2
Os02g0732600	12	complement(23135061..23137352)	0,58	-3,64	-12,45	4,59E-06	0,00214	0,16	S1 vs. S2
Os04g0389600	12	complement(23135061..23137352)	0,58	-3,64	-12,45	4,59E-06	0,00214	0,16	S1 vs. S2
Os04g0508500	12	complement(23135061..23137352)	0,58	-3,64	-12,45	4,59E-06	0,00214	0,16	S1 vs. S2
Os04g0532800	12	complement(23135061..23137352)	0,58	-3,64	-12,45	4,59E-06	0,00214	0,16	S1 vs. S2
Os05g0429900	12	complement(23135061..23137352)	0,58	-3,64	-12,45	4,59E-06	0,00214	0,16	S1 vs. S2
Os05g0589400	12	complement(23135061..23137352)	0,58	-3,64	-12,45	4,59E-06	0,00214	0,16	S1 vs. S2
Os06g0112700	12	complement(23135061..23137352)	0,58	-3,64	-12,45	4,59E-06	0,00214	0,16	S1 vs. S2
Os06g0258000	12	complement(23135061..23137352)	0,58	-3,64	-12,45	4,59E-06	0,00214	0,16	S1 vs. S2
Os06g0637500	12	complement(23135061..23137352)	0,58	-3,64	-12,45	4,59E-06	0,00214	0,16	S1 vs. S2
Os07g0627300	12	complement(23135061..23137352)	0,58	-3,64	-12,45	4,59E-06	0,00214	0,16	S1 vs. S2
Os07g0629000	12	complement(23135061..23137352)	0,58	-3,64	-12,45	4,59E-06	0,00214	0,16	S1 vs. S2
Os07g0688200	12	complement(23135061..23137352)	0,58	-3,64	-12,45	4,59E-06	0,00214	0,16	S1 vs. S2
Os09g0106700	12	complement(23135061..23137352)	0,58	-3,64	-12,45	4,59E-06	0,00214	0,16	S1 vs. S2
Os09g0538400	12	complement(23135061..23137352)	0,58	-3,64	-12,45	4,59E-06	0,00214	0,16	S1 vs. S2
Os12g0175400	12	complement(23135061..23137352)	0,58	-3,64	-12,45	4,59E-06	0,00214	0,16	S1 vs. S2
Os12g0564100	12	complement(23135061..23137352)	0,58	-3,64	-12,45	4,59E-06	0,00214	0,16	S1 vs. S2
Os12g0567300	12	complement(23135061..23137352)	0,58	-3,64	-12,45	4,59E-06	0,00214	0,16	S1 vs. S2
Os11g0606400	11	complement(23403454..23407183)	0,41	-3,6	-12,13	5,54E-09	9,45E-06	0,000199	S1 vs. S2
Os06g0226500	6	6556697..6557748	0,78	-3,59	-12,07	3,01E-05	0,00869	1	S1 vs. S2
Os12g0105800	12	complement(306553..310206)	0,33	-3,55	-11,74	6,46E-07	0,000445	0,02	S1 vs. S2
Os04g0223500	4	complement(8243749..8249931)	1,65	-3,5	-11,34	9,33E-15	1,11E-10	3,34E-10	S1 vs. S2
Os03g0738600	3	30315456..30318959	0,78	-3,42	-10,68	1,55E-06	0,000894	0,06	S1 vs. S2
Os01g0889900	1	complement(38688239..38692619)	0,35	-3,3	-9,83	1,2E-05	0,00447	0,43	S1 vs. S2
Os09g0511600	9	complement(19882710..19888124)	0,18	-3,22	-9,3	3,41E-05	0,00947	1	S1 vs. S2
Os11g0439600	11	complement(14390405..14398122)	1,25	-2,99	-7,96	1,59E-10	4,37E-07	5,68E-06	S1 vs. S2
Os04g0401700	4	19886674..19892355	3,03	-2,71	-6,56	1,72E-09	4,12E-06	6,17E-05	S1 vs. S2
Os04g0457500	4	complement(22855680..22860859)	0,78	-2,68	-6,4	2,37E-05	0,0073	0,85	S1 vs. S2
Os08g0220400	8	complement(7325157..7327754)	150,08	-2,57	-5,93	1,3E-13	9,13E-10	4,66E-09	S1 vs. S2
Os03g0423300	3	complement(17623509..17625094)	0,66	-2,53	-5,79	1,85E-06	0,00103	0,07	S1 vs. S2
Os04g0531900	4	complement(26590627..26592402)	2,25	-2,47	-5,56	3,73E-07	0,000285	0,01	S1 vs. S2
Os01g0102900	1	complement(169390..170316)	10,14	-2,43	-5,4	1,16E-08	1,64E-05	0,000417	S1 vs. S2
Os03g0109900	3	complement(574269..580537)	0,65	-2,39	-5,24	3,64E-09	7,25E-06	0,00013	S1 vs. S2
Os04g0330900	4	complement(15380815..15398873)	0,45	-2,39	-5,24	2E-08	2,65E-05	0,000716	S1 vs. S2
Os02g0185200	2	4754173..4756298	0,67	-2,33	-5,03	8,52E-06	0,00343	0,31	S1 vs. S2
Os02g0576600	2	complement(22146429..22150147)	1,07	-2,33	-5,04	1,09E-08	1,63E-05	0,000391	S1 vs. S2
Os10g0419200	10	complement(14739603..14743098)	2,29	-2,16	-4,46	2,18E-08	2,78E-05	0,00078	S1 vs. S2
Os06g0714400	6	complement(30324671..30326113)	1,85	-2,08	-4,24	9,24E-06	0,00362	0,33	S1 vs. S2
Os06g0320500	6	12452708..12454049	10,02	-2,03	-4,08	1,51E-11	4,5E-08	5,41E-07	S1 vs. S2
Os02g0245800	2	complement(8244347..8248444)	1,54	-1,91	-3,77	2,35E-05	0,0073	0,84	S1 vs. S2
Os04g0573900	4	28892561..28894832	4,89	-1,9	-3,74	3,99E-09	7,52E-06	0,000143	S1 vs. S2
Os08g0435900	8	complement(21171332..21172654)	9,44	-1,85	-3,6	5,17E-09	9,26E-06	0,000185	S1 vs. S2
Os02g0115700	2	complement(825041..827640)	8,33	-1,81	-3,51	1,51E-06	0,000894	0,05	S1 vs. S2
Os03g0291500	3	complement(10120289..10124384)	14,56	-1,79	-3,46	1,49E-07	0,000135	0,00532	S1 vs. S2
Os05g0171900	5	4301546..4306024	2,5	-1,69	-3,22	8,51E-09	1,33E-05	0,000305	S1 vs. S2
Os07g0257200	7	complement(8871643..8878905)	3,7	-1,63	-3,1	2,43E-07	0,000193	0,00869	S1 vs. S2
Os03g0778100	12	13115340..13117325	2,93	-1,5	-2,83	4,52E-06	0,00214	0,16	S1 vs. S2
Os05g0242400	12	13115340..13117325	2,93	-1,5	-2,83	4,52E-06	0,00214	0,16	S1 vs. S2
Os05g0560000	12	13115340..13117325	2,93	-1,5	-2,83	4,52E-06	0,00214	0,16	S1 vs. S2
Os07g0148900	12	13115340..13117325	2,93	-1,5	-2,83	4,52E-06	0,00214	0,16	S1 vs. S2
Os07g0435300	12	13115340..13117325	2,93	-1,5	-2,83	4,52E-06	0,00214	0,16	S1 vs. S2
Os08g0560900	12	13115340..13117325	2,93	-1,5	-2,83	4,52E-06	0,00214	0,16	S1 vs. S2
Os09g0481200	12	13115340..13117325	2,93	-1,5	-2,83	4,52E-06	0,00214	0,16	S1 vs. S2
Os12g0420400	12	13115340..13117325	2,93	-1,5	-2,83	4,52E-06	0,00214	0,16	S1 vs. S2
Os09g0346500	9	10845779..10847012	13,59	-1,49	-2,81	3,1E-07	0,000241	0,01	S1 vs. S2
Os01g0501800	1	17349338..17350785	4,38	-1,47	-2,76	2,81E-06	0,00153	0,1	S1 vs. S2
Os01g0773700	1	17349338..17350785	4,38	-1,47	-2,76	2,81E-06	0,00153	0,1	S1 vs. S2
Os01g0938100	1	17349338..17350785	4,38	-1,47	-2,76	2,81E-06	0,00153	0,1	S1 vs. S2
Os03g0343900	1	17349338..17350785	4,38	-1,47	-2,76	2,81E-06	0,00153	0,1	S1 vs. S2
Os04g0690800	1	17349338..17350785	4,38	-1,47	-2,76	2,81E-06	0,00153	0,1	S1 vs. S2
Os07g0141400	1	17349338..17350785	4,38	-1,47	-2,76	2,81E-06	0,00153	0,1	S1 vs. S2
Os07g0147500	1	17349338..17350785	4,38	-1,47	-2,76	2,81E-06	0,00153	0,1	S1 vs. S2
Os08g0119800	1	17349338..17350785	4,38	-1,47	-2,76	2,81E-06	0,00153	0,1	S1 vs. S2
Os07g0558400	7	complement(22316343..22317935)	2,47	-1,46	-2,75	8,52E-06	0,00343	0,31	S1 vs. S2
Os11g0171300	11	complement(3488768..3491609)	8,78	-1,44	-2,71	6,54E-06	0,00279	0,23	S1 vs. S2
Os04g0457000	4	complement(22835913..22837163)	4,51	-1,37	-2,58	9,57E-06	0,00369	0,34	S1 vs. S2
Os04g0459500	4	22937162..22939010	3,13	-1,37	-2,59	1,82E-05	0,00629	0,65	S1 vs. S2
Os01g0501800	7	complement(2136871..2138335)	8,79	-1,27	-2,42	9,3E-06	0,00362	0,33	S1 vs. S2
Os01g0773700	7	complement(2136871..2138335)	8,79	-1,27	-2,42	9,3E-06	0,00362	0,33	S1 vs. S2
Os01g0938100	7	complement(2136871..2138335)	8,79	-1,27	-2,42	9,3E-06	0,00362	0,33	S1 vs. S2
Os03g0343900	7	complement(2136871..2138335)	8,79	-1,27	-2,42	9,3E-06	0,00362	0,33	S1 vs. S2
Os04g0690800	7	complement(2136871..2138335)	8,79	-1,27	-2,42	9,3E-06	0,00362	0,33	S1 vs. S2
Os07g0141400	7	complement(2136871..2138335)	8,79	-1,27	-2,42	9,3E-06	0,00362	0,33	S1 vs. S2
Os07g0147500	7	complement(2136871..2138335)	8,79	-1,27	-2,42	9,3E-06	0,00362	0,33	S1 vs. S2
Os08g0119800	7	complement(2136871..2138335)	8,79	-1,27	-2,42	9,3E-06	0,00362	0,33	S1 vs. S2
Os01g0791033	1	complement(33533878..33534687)	866,23	-1,23	-2,35	5,36E-06	0,00246	0,19	S1 vs. S2
Os07g0631900	7	26211749..26213842	7,65	-1,16	-2,24	2,4E-05	0,0073	0,86	S1 vs. S2
Os11g0518900	11	18636476..18650782	7,51	-1,13	-2,19	2,4E-05	0,0073	0,86	S1 vs. S2
Os03g0770800	3	complement(31930835..31934477)	25,57	1,02	2,03	4,48E-06	0,00214	0,16	S1 vs. S2
Os02g0651500	2	26262647..26265666	25,3	1,03	2,04	2,04E-05	0,00664	0,73	S1 vs. S2
Os12g0569700	12	23442171..23447194	17,86	1,07	2,1	3,4E-06	0,00172	0,12	S1 vs. S2
Os07g0583000	7	complement(23601302..23604108)	122,4	1,13	2,19	9,1E-06	0,00362	0,33	S1 vs. S2
Os06g0682633	6	28446534..28447986	17,89	1,16	2,24	2,25E-05	0,0072	0,81	S1 vs. S2
Os03g0299600	3	complement(10517166..10518361)	29,57	1,17	2,26	3,27E-05	0,0093	1	S1 vs. S2
Os02g0176300	2	4182680..4184658	24,51	1,22	2,32	1,47E-05	0,00529	0,53	S1 vs. S2
Os01g0261200	1	complement(8792649..8797358)	13,67	1,25	2,37	6,48E-06	0,00279	0,23	S1 vs. S2
Os05g0176700	5	complement(4593291..4594041)	42,49	1,25	2,38	1,03E-05	0,00392	0,37	S1 vs. S2
Os08g0156600	8	3281105..3284469	9,83	1,25	2,38	2,97E-05	0,00869	1	S1 vs. S2
Os12g0286600	12	complement(10935594..10942446)	12,52	1,26	2,39	3,31E-05	0,00933	1	S1 vs. S2
Os05g0408300	5	complement(19934675..19938244)	8,98	1,27	2,41	1,98E-05	0,00658	0,71	S1 vs. S2
Os01g0949300	1	41818382..41819282	22,25	1,28	2,43	3,26E-05	0,0093	1	S1 vs. S2
Os01g0629400	1	25132887..25138118	23,92	1,29	2,44	4,15E-07	0,000304	0,01	S1 vs. S2
Os07g0687200	7	complement(29197781..29200317)	23,3	1,32	2,49	2,93E-06	0,00154	0,1	S1 vs. S2
Os01g0739200	1	30868528..30871602	14	1,34	2,54	3,62E-06	0,0018	0,13	S1 vs. S2
Os02g0567200	2	complement(21569288..21574149)	13,23	1,35	2,55	3,73E-06	0,00183	0,13	S1 vs. S2
Os06g0143400	6	2274708..2279507	10,02	1,36	2,56	3E-05	0,00869	1	S1 vs. S2
Os01g0292200	1	10622951..10627532	13,75	1,37	2,59	2,17E-06	0,0012	0,08	S1 vs. S2
Os02g0139100	2	complement(2082561..2085271)	8,57	1,38	2,6	7,31E-06	0,00301	0,26	S1 vs. S2
Os02g0790500	2	33569391..33573165	26,58	1,38	2,59	1,61E-06	0,000914	0,06	S1 vs. S2
Os03g0326500	3	complement(11919332..11920433)	21,33	1,38	2,6	1,99E-05	0,00658	0,71	S1 vs. S2
Os08g0408500	8	19547328..19548978	59,87	1,39	2,62	3,76E-08	4,21E-05	0,00135	S1 vs. S2
Os03g0410900	3	16941149..16943327	74,82	1,41	2,65	1,36E-07	0,000128	0,00487	S1 vs. S2
Os09g0135850	9	2703296..2707302	4,95	1,41	2,67	1,91E-05	0,00647	0,69	S1 vs. S2
Os01g0726400	1	complement(30278399..30280577)	12,63	1,43	2,7	2,12E-05	0,00683	0,76	S1 vs. S2
Os11g0545300	11	20063595..20074615	5,45	1,46	2,75	1,63E-07	0,000143	0,00585	S1 vs. S2
Os01g0128300	1	complement(1569644..1570940)	10,34	1,48	2,79	1,02E-06	0,000651	0,04	S1 vs. S2
Os03g0392050	3	complement(15735544..15739133)	43,88	1,5	2,83	1,01E-07	0,000101	0,00363	S1 vs. S2
Os03g0307000	3	10913852..10916716	7,22	1,53	2,88	7,11E-06	0,00299	0,25	S1 vs. S2
Os04g0244800	4	complement(9368053..9369130)	26,13	1,55	2,93	4,53E-07	0,000325	0,02	S1 vs. S2
Os06g0646700	6	complement(26421563..26427830)	4,82	1,57	2,96	2,59E-05	0,00778	0,93	S1 vs. S2
Os02g0621300	2	complement(24718047..24724116)	6,44	1,61	3,06	1,25E-06	0,000771	0,04	S1 vs. S2
Os05g0456925	5	complement(22440910..22445473)	8,43	1,62	3,07	1,94E-07	0,000162	0,00696	S1 vs. S2
Os03g0126800	3	complement(1515355..1518947)	9,28	1,63	3,09	1,46E-05	0,00529	0,52	S1 vs. S2
Os04g0450100	4	22428835..22431568	22,91	1,7	3,26	3,29E-06	0,0017	0,12	S1 vs. S2
Os01g0278000	1	complement(9770018..9771047)	14,85	1,75	3,37	1,48E-05	0,00529	0,53	S1 vs. S2
Os01g0794500	1	complement(33651161..33655179)	31,68	1,76	3,38	2,31E-08	2,86E-05	0,000828	S1 vs. S2
Os01g0247500	1	complement(8125672..8128014)	2,75	1,78	3,44	1,64E-05	0,00575	0,59	S1 vs. S2
Os03g0319300	3	11522676..11524356	22,35	1,86	3,63	3,11E-09	6,65E-06	0,000112	S1 vs. S2
Os03g0241900	3	complement(7500164..7503768)	22,92	1,94	3,82	6,27E-07	0,000441	0,02	S1 vs. S2
Os02g0158701	2	3196192..3196414	21,37	2	3,99	5,54E-06	0,00251	0,2	S1 vs. S2
Os12g0242500	12	7892375..7893898	1,52	2,12	4,36	1,52E-05	0,00538	0,54	S1 vs. S2
Os02g0739650	2	30918850..30920070	5,35	2,17	4,5	2,78E-05	0,0083	1	S1 vs. S2
Os01g0705200	1	complement(29233040..29234256)	6,3	2,22	4,67	2E-05	0,00658	0,72	S1 vs. S2
Os04g0527000	4	complement(26347311..26348499)	5,93	2,28	4,86	1,87E-05	0,00637	0,67	S1 vs. S2
Os03g0191900	3	complement(4780248..4781570)	3,84	2,4	5,29	4,61E-08	4,86E-05	0,00165	S1 vs. S2
Os01g0135700	1	complement(1931016..1931904)	12,86	2,55	5,85	2,93E-08	3,5E-05	0,00105	S1 vs. S2
Os03g0285800	3	complement(9847723..9850384)	3,41	2,74	6,69	8,9E-07	0,000597	0,03	S1 vs. S2
Os03g0191850	3	4780247..4781570	5,02	2,81	7,01	4E-08	4,34E-05	0,00143	S1 vs. S2
Os01g0845100	1	complement(36296586..36298621)	2,25	2,82	7,04	1,55E-06	0,000894	0,06	S1 vs. S2
Os08g0316900	8	complement(13603168..13604199)	3,7	2,84	7,14	1,36E-06	0,000828	0,05	S1 vs. S2
Os10g0150600	10	3016889..3018047	2,88	3,03	8,19	3,36E-05	0,0094	1	S1 vs. S2
Os02g0726700	2	complement(30233286..30235221)	0,85	3,04	8,25	1,31E-05	0,00485	0,47	S1 vs. S2
Os12g0118200	12	complement(887161..890817)	38,76	3,62	12,27	0	0	0	S1 vs. S2
Os03g0822400	3	34533182..34533828	1,77	3,88	14,69	9,78E-07	0,000637	0,04	S1 vs. S2
Os10g0150400	10	complement(3012860..3013949)	2,64	3,95	15,46	3,02E-08	3,5E-05	0,00108	S1 vs. S2
Os11g0291475	11	10610057..10615844	1,03	4,15	17,8	1,7E-07	0,000145	0,00608	S1 vs. S2
Os10g0149200	10	complement(2958892..2960029)	1,1	4,27	19,33	3,32E-06	0,0017	0,12	S1 vs. S2
Os10g0150000	10	2991341..2992012	2,16	4,44	21,65	1,27E-07	0,000123	0,00455	S1 vs. S2
Os05g0190300	5	complement(5534529..5536108)	1,67	4,54	23,28	1,19E-08	1,64E-05	0,000427	S1 vs. S2
Os01g0821300	1	complement(35032858..35033657)	1,91	4,55	23,47	2,87E-05	0,00849	1	S1 vs. S2
Os05g0190500	5	complement(5553632..5554934)	0,96	5,1	34,22	1,2E-06	0,000756	0,04	S1 vs. S2
Os10g0150700	10	3020705..3022087	6,46	5,56	47,32	1,38E-12	6,16E-09	4,93E-08	S1 vs. S2
Os05g0189300	5	complement(5472720..5474678)	0,78	5,82	56,58	3,56E-05	0,00973	1	S1 vs. S2
Os04g0571600	4	28772448..28774623	0,76	6,16	71,75	1,51E-07	0,000135	0,0054	S1 vs. S2
Os09g0525500	9	20534165..20534903	5,48	6,59	96,66	3,91E-07	0,000292	0,01	S1 vs. S2
