AT5G07530	5	complement(2382381..2384525)	0,84	-6,25	-76,14	2,5E-09	2,03E-06	6,91E-05	S4 vs. S3
AT5G20470	5	complement(6916181..6920120)	0,4	-5,2	-36,65	0,00011	0,00755	1	S4 vs. S3
AT3G19390	3	6722825..6725110	0,56	-4,61	-24,34	4,12E-05	0,00373	1	S4 vs. S3
AT5G37170	5	14712734..14714551	7,11	-4,41	-21,29	4,87E-06	0,000779	0,13	S4 vs. S3
AT5G51800	5	21048191..21052069	0,16	-3,78	-13,76	4,1E-06	0,000692	0,11	S4 vs. S3
AT2G17000	2	complement(7388893..7392302)	2,7	-3,72	-13,19	4,85E-05	0,00416	1	S4 vs. S3
AT1G09890	1	complement(3214049..3217603)	0,28	-3,52	-11,48	0,000102	0,00723	1	S4 vs. S3
AT3G14380	3	complement(4802952..4804468)	2,89	-3,52	-11,5	1,2E-06	0,000267	0,03	S4 vs. S3
AT5G11400	5	complement(3636614..3638059)	5,95	-3,49	-11,22	1,13E-11	3,78E-08	3,12E-07	S4 vs. S3
AT5G13370	5	4286740..4289663	0,37	-3,37	-10,32	0,000155	0,00976	1	S4 vs. S3
AT2G18500	2	8026957..8028273	0,68	-3,29	-9,81	3,55E-09	2,52E-06	9,82E-05	S4 vs. S3
AT4G15680	4	8931617..8932317	2,5	-3,22	-9,32	7,11E-05	0,00554	1	S4 vs. S3
AT3G14370	3	complement(4797828..4799612)	0,88	-3,18	-9,03	5,63E-07	0,000147	0,02	S4 vs. S3
AT1G61560	1	complement(22708468..22712289)	6,67	-3,15	-8,9	1,89E-07	6,24E-05	0,00524	S4 vs. S3
AT4G26260	4	13297695..13300444	11,94	-3,12	-8,67	6,91E-07	0,000163	0,02	S4 vs. S3
AT3G13790	3	complement(4532762..4535914)	5,8	-3,1	-8,55	8,75E-10	7,81E-07	2,42E-05	S4 vs. S3
AT4G15530	4	complement(8864615..8870979)	0,47	-3,06	-8,35	6,51E-05	0,00521	1	S4 vs. S3
AT3G56060	3	complement(20803038..20806333)	1,49	-3,02	-8,14	3,41E-05	0,00322	0,94	S4 vs. S3
AT5G50200	5	20436180..20437815	9,12	-2,95	-7,73	1,48E-12	8,21E-09	4,1E-08	S4 vs. S3
AT5G38320	5	complement(15316015..15316897)	1,49	-2,91	-7,54	0,000115	0,00784	1	S4 vs. S3
AT5G44020	5	17712203..17714406	3,6	-2,85	-7,21	1,23E-08	6,44E-06	0,00034	S4 vs. S3
AT2G33850	2	complement(14320865..14322082)	108,21	-2,84	-7,15	6,52E-09	3,84E-06	0,00018	S4 vs. S3
AT3G02940	3	661849..664011	2,64	-2,84	-7,18	3,14E-06	0,000578	0,09	S4 vs. S3
AT1G66950	1	24978121..24984619	0,35	-2,78	-6,86	5,08E-08	2,16E-05	0,0014	S4 vs. S3
AT1G15330	1	5274271..5275602	6,65	-2,74	-6,68	0,000128	0,0085	1	S4 vs. S3
AT4G30270	4	complement(14819192..14820595)	5,78	-2,72	-6,59	1,91E-06	0,000388	0,05	S4 vs. S3
AT1G18400	1	6331398..6333856	2,76	-2,69	-6,44	2,72E-07	7,99E-05	0,00751	S4 vs. S3
AT5G20230	5	6826365..6827748	8,83	-2,68	-6,4	1,4E-05	0,00173	0,39	S4 vs. S3
AT4G36570	4	17254290..17255762	3,2	-2,65	-6,27	7,14E-07	0,000167	0,02	S4 vs. S3
AT2G47550	2	19508929..19511792	0,95	-2,63	-6,2	7,07E-05	0,00554	1	S4 vs. S3
AT3G60950	3	22524475..22530306	0,67	-2,63	-6,18	3,06E-05	0,00295	0,85	S4 vs. S3
AT2G19800	2	complement(8530865..8533779)	51,95	-2,6	-6,06	0,000132	0,00863	1	S4 vs. S3
AT5G38900	5	complement(15573505..15575712)	1,49	-2,58	-6	4,02E-05	0,00367	1	S4 vs. S3
AT5G56870	5	23003909..23009672	3,32	-2,49	-5,61	9,23E-08	3,74E-05	0,00255	S4 vs. S3
AT4G32170	4	15533701..15535369	1,7	-2,48	-5,57	2,08E-05	0,00232	0,58	S4 vs. S3
AT1G58340	1	21652988..21655439	0,53	-2,46	-5,51	0,000108	0,00753	1	S4 vs. S3
AT4G00920	4	393767..395382	5,97	-2,45	-5,47	2,52E-05	0,00258	0,7	S4 vs. S3
AT1G21540	1	complement(7548450..7550741)	6,77	-2,42	-5,35	6,79E-11	1,47E-07	1,88E-06	S4 vs. S3
AT5G61720	5	24801505..24803395	14,46	-2,41	-5,32	7,95E-06	0,00109	0,22	S4 vs. S3
AT5G08350	5	complement(2685712..2687476)	3,51	-2,35	-5,1	1,76E-05	0,00202	0,49	S4 vs. S3
AT1G19790	1	complement(6838120..6840313)	2,38	-2,28	-4,86	9,86E-08	3,88E-05	0,00273	S4 vs. S3
AT2G39510	2	complement(16491143..16493343)	4,53	-2,27	-4,82	1,8E-06	0,000368	0,05	S4 vs. S3
AT3G11680	3	complement(3686773..3689405)	1,88	-2,23	-4,68	0,000138	0,00889	1	S4 vs. S3
AT1G55610	1	complement(20779493..20784017)	0,37	-2,22	-4,65	2,36E-05	0,00245	0,65	S4 vs. S3
AT5G11130	5	3542139..3544780	2,71	-2,22	-4,67	1,85E-08	9,45E-06	0,000511	S4 vs. S3
AT1G19540	1	6765653..6768290	2,16	-2,2	-4,59	1,61E-07	5,51E-05	0,00446	S4 vs. S3
AT1G15380	1	5290582..5292582	16,45	-2,19	-4,55	3,35E-06	0,000605	0,09	S4 vs. S3
AT1G22890	1	8102728..8103588	21,2	-2,19	-4,58	4,51E-09	2,84E-06	0,000125	S4 vs. S3
AT5G11320	5	complement(3611247..3613640)	0,73	-2,19	-4,56	3,68E-06	0,00065	0,1	S4 vs. S3
AT5G11950	5	3854388..3857243	7,24	-2,18	-4,53	6,01E-07	0,000151	0,02	S4 vs. S3
AT5G20960	5	7116455..7122774	1,53	-2,18	-4,53	2,23E-05	0,00236	0,62	S4 vs. S3
AT5G23360	5	7861737..7862746	3,62	-2,09	-4,24	9,97E-08	3,88E-05	0,00276	S4 vs. S3
AT1G59830	4	10773804..10775942	2,57	-2,08	-4,23	4,48E-06	0,000737	0,12	S4 vs. S3
AT4G19840	4	10773804..10775942	2,57	-2,08	-4,23	4,48E-06	0,000737	0,12	S4 vs. S3
AT3G23430	3	complement(8387398..8393467)	0,62	-2,06	-4,17	9,14E-05	0,00664	1	S4 vs. S3
AT5G10520	5	complement(3319870..3322935)	1,3	-2,06	-4,17	5E-05	0,00424	1	S4 vs. S3
AT2G18196	2	complement(7920440..7922593)	1	-2,04	-4,12	0,000156	0,00981	1	S4 vs. S3
AT3G61035	3	complement(22591563..22593683)	2,8	-2,02	-4,06	1,51E-06	0,000319	0,04	S4 vs. S3
AT5G13790	5	complement(4448862..4450958)	0,96	-2,02	-4,05	1,17E-05	0,00149	0,32	S4 vs. S3
AT2G39660	2	16531527..16533986	3,22	-1,98	-3,94	1,21E-05	0,00154	0,34	S4 vs. S3
AT1G78960	1	29696394..29701439	5,25	-1,97	-3,91	1,58E-11	4,38E-08	4,38E-07	S4 vs. S3
AT5G40780	5	16323567..16327382	1,97	-1,97	-3,93	7,17E-06	0,00103	0,2	S4 vs. S3
AT2G19460	2	8431363..8432269	5,09	-1,96	-3,88	6,78E-07	0,000163	0,02	S4 vs. S3
AT3G53620	3	19880504..19883743	16,86	-1,88	-3,67	3,82E-06	0,000656	0,11	S4 vs. S3
AT4G00910	4	complement(387388..391441)	1,7	-1,87	-3,65	1,79E-07	5,97E-05	0,00496	S4 vs. S3
AT5G57240	5	23192872..23195476	13,06	-1,87	-3,64	7,9E-05	0,00598	1	S4 vs. S3
AT4G37050	4	complement(17457135..17459770)	9,52	-1,84	-3,57	1,24E-08	6,44E-06	0,000342	S4 vs. S3
AT5G14000	5	4517694..4519426	2,92	-1,83	-3,57	2,31E-05	0,00243	0,64	S4 vs. S3
AT1G68640	1	complement(25769576..25772650)	0,79	-1,82	-3,52	6,08E-07	0,000151	0,02	S4 vs. S3
AT1G68780	1	complement(25831662..25833966)	1,03	-1,82	-3,53	2,18E-06	0,000428	0,06	S4 vs. S3
AT2G16210	2	complement(7026761..7029175)	0,34	-1,82	-3,52	4,15E-05	0,00373	1	S4 vs. S3
AT2G38400	2	16083645..16086453	31,98	-1,79	-3,45	9,74E-06	0,00129	0,27	S4 vs. S3
AT4G22590	4	complement(11893499..11896480)	4,53	-1,78	-3,44	5,67E-06	0,000871	0,16	S4 vs. S3
AT1G35830	1	complement(13320675..13322511)	2,26	-1,76	-3,38	7,02E-06	0,00102	0,19	S4 vs. S3
AT1G56020	1	20951856..20953595	1,01	-1,73	-3,32	2,18E-06	0,000428	0,06	S4 vs. S3
AT1G26770	1	9259432..9261313	4,95	-1,71	-3,28	4,87E-05	0,00416	1	S4 vs. S3
AT1G08800	1	complement(2812818..2818071)	1,09	-1,7	-3,25	7,67E-06	0,00108	0,21	S4 vs. S3
AT3G12000	3	complement(3818046..3819642)	20,51	-1,69	-3,23	9,3E-07	0,000212	0,03	S4 vs. S3
AT4G35070	4	16694044..16695711	1,16	-1,69	-3,22	1,69E-06	0,00035	0,05	S4 vs. S3
AT5G03680	5	957611..961047	3,08	-1,69	-3,23	2,01E-08	9,82E-06	0,000557	S4 vs. S3
AT5G10800	5	complement(3412654..3418553)	2,93	-1,69	-3,23	3,37E-09	2,45E-06	9,31E-05	S4 vs. S3
AT5G51460	5	20900859..20904647	0,7	-1,69	-3,22	4,04E-06	0,000686	0,11	S4 vs. S3
AT5G64240	5	25695620..25697416	2,6	-1,69	-3,22	7,85E-06	0,00109	0,22	S4 vs. S3
AT3G11600	3	3667205..3668303	3,62	-1,68	-3,21	3,03E-07	8,82E-05	0,00838	S4 vs. S3
AT3G55130	3	complement(20433839..20436453)	8,75	-1,67	-3,18	8,86E-08	3,66E-05	0,00245	S4 vs. S3
AT4G14746	4	complement(8462437..8464485)	3,29	-1,65	-3,14	1,53E-05	0,00182	0,42	S4 vs. S3
AT1G10540	1	complement(3474858..3478028)	4,53	-1,64	-3,11	2,67E-06	0,000513	0,07	S4 vs. S3
AT4G35190	4	16746189..16748455	7,86	-1,64	-3,11	4,52E-06	0,000739	0,12	S4 vs. S3
AT5G48530	5	complement(19666790..19668830)	1,84	-1,63	-3,09	6,43E-05	0,00515	1	S4 vs. S3
AT5G63710	5	25499378..25503023	0,82	-1,63	-3,1	0,000103	0,00724	1	S4 vs. S3
AT1G24540	1	8699650..8701458	13,68	-1,61	-3,06	0,000136	0,00876	1	S4 vs. S3
AT3G24225	3	8768846..8769695	5,51	-1,61	-3,05	1,96E-05	0,00221	0,54	S4 vs. S3
AT5G47590	5	complement(19297614..19299174)	1,83	-1,6	-3,03	6,99E-06	0,00102	0,19	S4 vs. S3
AT1G04580	1	complement(1252005..1257893)	4,22	-1,59	-3	9,76E-07	0,000219	0,03	S4 vs. S3
AT5G25770	5	complement(8969215..8972125)	5,17	-1,58	-3	1,03E-07	3,94E-05	0,00286	S4 vs. S3
AT1G11080	1	complement(3694328..3698013)	7,31	-1,56	-2,95	4,09E-05	0,00372	1	S4 vs. S3
AT4G31820	4	complement(15390519..15394626)	11,08	-1,54	-2,91	1,17E-11	3,78E-08	3,24E-07	S4 vs. S3
AT5G62900	5	25248690..25250032	3,92	-1,53	-2,88	1,72E-05	0,00198	0,47	S4 vs. S3
AT2G37180	2	15617635..15619155	4,85	-1,52	-2,87	1,68E-05	0,00195	0,47	S4 vs. S3
AT3G13960	3	4608076..4610497	5,56	-1,52	-2,86	5,16E-09	3,1E-06	0,000143	S4 vs. S3
AT5G16050	3	4608076..4610497	5,56	-1,52	-2,86	5,16E-09	3,1E-06	0,000143	S4 vs. S3
AT3G26140	3	complement(9559555..9563322)	170,88	-1,51	-2,86	0,000127	0,00844	1	S4 vs. S3
AT1G12780	1	complement(4355926..4358894)	40,93	-1,5	-2,83	0,000152	0,00968	1	S4 vs. S3
AT3G14990	3	5047376..5049971	18,14	-1,5	-2,82	1,12E-05	0,00146	0,31	S4 vs. S3
AT3G62650	3	23168061..23169187	44,97	-1,5	-2,82	4,36E-05	0,00388	1	S4 vs. S3
AT4G20320	4	10974456..10979627	16,3	-1,48	-2,78	7,95E-06	0,00109	0,22	S4 vs. S3
AT1G50290	1	complement(18627551..18628452)	16,02	-1,47	-2,78	5,07E-07	0,000134	0,01	S4 vs. S3
AT1G59970	1	22073352..22074931	1,6	-1,47	-2,76	1,05E-05	0,00138	0,29	S4 vs. S3
AT5G23350	5	complement(7858545..7859201)	6,05	-1,47	-2,77	0,000117	0,00791	1	S4 vs. S3
AT5G47370	5	complement(19216271..19218007)	2,87	-1,42	-2,68	4,9E-06	0,000779	0,14	S4 vs. S3
AT2G02850	2	complement(826299..827994)	120,41	-1,4	-2,64	1,68E-05	0,00195	0,47	S4 vs. S3
AT5G04860	5	complement(1411549..1414722)	1,82	-1,4	-2,65	5,39E-05	0,00448	1	S4 vs. S3
AT4G31610	4	15317499..15320046	4,81	-1,39	-2,62	3,16E-05	0,00301	0,87	S4 vs. S3
AT5G53390	5	complement(21656734..21659367)	2,23	-1,38	-2,61	6,29E-05	0,00505	1	S4 vs. S3
AT3G21600	3	complement(7606460..7608477)	4,86	-1,37	-2,59	2,16E-05	0,00235	0,6	S4 vs. S3
AT5G66440	5	complement(26529919..26531176)	3,07	-1,37	-2,58	2,95E-05	0,00291	0,82	S4 vs. S3
AT5G54080	5	21945865..21948913	12,33	-1,35	-2,56	5,31E-06	0,000829	0,15	S4 vs. S3
AT2G47560	2	complement(19511717..19512728)	4,03	-1,34	-2,53	0,0001	0,00711	1	S4 vs. S3
AT5G23380	5	7866742..7870384	13,22	-1,34	-2,52	2,67E-05	0,00269	0,74	S4 vs. S3
AT3G53780	3	complement(19924538..19927026)	7,69	-1,33	-2,52	1,83E-05	0,00207	0,5	S4 vs. S3
AT5G05690	5	complement(1702640..1706948)	9,81	-1,32	-2,5	1,07E-07	3,98E-05	0,00295	S4 vs. S3
AT5G24800	5	8515200..8516669	40,68	-1,32	-2,49	9,43E-06	0,00126	0,26	S4 vs. S3
AT3G01520	3	208250..210161	13,34	-1,31	-2,48	3,79E-06	0,000656	0,1	S4 vs. S3
AT5G43700	5	17550179..17551715	16,35	-1,31	-2,48	7,12E-10	6,97E-07	1,97E-05	S4 vs. S3
AT2G39570	2	16507882..16510264	52,68	-1,29	-2,45	4,02E-05	0,00367	1	S4 vs. S3
AT5G60700	5	complement(24402129..24405600)	14,63	-1,28	-2,42	4,71E-05	0,0041	1	S4 vs. S3
AT4G12840	4	complement(7533439..7536266)	4,87	-1,24	-2,35	7,62E-05	0,00584	1	S4 vs. S3
AT2G25964	2	complement(11070639..11071287)	21,65	-1,23	-2,35	8,22E-05	0,00618	1	S4 vs. S3
AT5G48900	5	19825078..19829140	5,97	-1,23	-2,35	0,000116	0,00789	1	S4 vs. S3
AT1G18270	1	complement(6283370..6293993)	17,66	-1,22	-2,32	8,2E-06	0,00112	0,23	S4 vs. S3
AT4G15090	5	7470328..7474133	6,76	-1,22	-2,32	3,75E-10	4,15E-07	1,04E-05	S4 vs. S3
AT5G22500	5	7470328..7474133	6,76	-1,22	-2,32	3,75E-10	4,15E-07	1,04E-05	S4 vs. S3
AT1G34630	1	12685176..12687641	3,88	-1,21	-2,31	4,54E-05	0,00396	1	S4 vs. S3
AT5G13180	5	4196256..4197940	2,51	-1,2	-2,3	7,03E-05	0,00552	1	S4 vs. S3
AT1G73390	1	complement(27590810..27595752)	2,35	-1,19	-2,28	4,45E-05	0,00392	1	S4 vs. S3
AT1G23440	1	8321611..8324497	1,9	-1,18	-2,27	2,23E-05	0,00236	0,62	S4 vs. S3
AT2G17370	2	7549702..7552260	4,5	-1,18	-2,26	7,93E-06	0,00109	0,22	S4 vs. S3
AT2G43340	2	18007629..18008665	17,49	-1,18	-2,27	1,3E-05	0,00162	0,36	S4 vs. S3
AT2G21540	2	complement(9220505..9224496)	6,4	-1,17	-2,26	6,05E-07	0,000151	0,02	S4 vs. S3
AT2G45820	2	complement(18862953..18864741)	38,64	-1,17	-2,25	3,74E-06	0,000654	0,1	S4 vs. S3
AT4G14490	4	complement(8331803..8333579)	2,32	-1,17	-2,26	0,00015	0,0096	1	S4 vs. S3
AT5G10450	5	complement(3283853..3286537)	82,42	-1,17	-2,25	6,14E-05	0,00497	1	S4 vs. S3
AT5G59810	5	complement(24096807..24100593)	7,34	-1,17	-2,25	0,000149	0,00959	1	S4 vs. S3
AT2G23790	2	complement(10125367..10127589)	17,94	-1,15	-2,22	9,01E-05	0,00663	1	S4 vs. S3
AT3G57550	3	21306609..21309570	5,25	-1,15	-2,21	6,76E-05	0,00536	1	S4 vs. S3
AT4G30550	4	14925407..14926861	31,07	-1,14	-2,2	2,19E-05	0,00236	0,6	S4 vs. S3
AT5G63650	5	complement(25481334..25483799)	7,48	-1,14	-2,2	1,42E-05	0,00173	0,39	S4 vs. S3
AT2G07680	2	3514668..3522658	2,69	-1,12	-2,17	5,79E-06	0,000884	0,16	S4 vs. S3
AT3G07550	3	2409477..2411329	2,37	-1,12	-2,17	2,2E-05	0,00236	0,61	S4 vs. S3
AT1G71730	1	complement(26985969..26986909)	3,68	-1,11	-2,16	0,000129	0,00851	1	S4 vs. S3
AT5G57350	5	complement(23230874..23236682)	4,15	-1,09	-2,13	0,000127	0,00844	1	S4 vs. S3
AT1G05835	1	1762145..1762814	10,72	-1,05	-2,06	0,00012	0,00806	1	S4 vs. S3
AT5G11390	5	3633649..3636934	3,38	-1,04	-2,06	4,4E-05	0,0039	1	S4 vs. S3
AT2G47630	2	19534473..19537074	14,74	-1,02	-2,03	8,28E-05	0,00619	1	S4 vs. S3
AT4G18910	4	10366044..10368510	3,08	-1,01	-2,02	3,06E-05	0,00295	0,85	S4 vs. S3
AT1G31812	1	complement(11410766..11412233)	173,7	-0,97	-1,96	8,78E-06	0,00118	0,24	S4 vs. S3
AT5G47620	5	complement(19302190..19304950)	10,23	-0,97	-1,96	1,6E-05	0,00188	0,44	S4 vs. S3
AT2G33770	2	complement(14277558..14283113)	2,77	-0,95	-1,94	2,1E-05	0,00232	0,58	S4 vs. S3
AT3G11620	3	complement(3669319..3672207)	2,49	-0,95	-1,93	0,000127	0,00844	1	S4 vs. S3
AT2G34640	2	complement(14581835..14584797)	8,19	0,95	1,94	2,96E-05	0,00291	0,82	S4 vs. S3
ATCG00300	Pt	35751..35939	31,67	0,95	1,93	5,91E-05	0,00481	1	S4 vs. S3
AT5G12860	5	complement(4059579..4062289)	7,48	0,97	1,96	4,43E-05	0,00391	1	S4 vs. S3
ATCG00750	Pt	complement(78960..79376)	156,33	0,98	1,98	6,28E-07	0,000154	0,02	S4 vs. S3
ATCG01110	Pt	complement(122011..123192)	19,43	0,98	1,97	5,81E-07	0,000149	0,02	S4 vs. S3
AT2G07749	2	3247003..3249357	5,82	0,99	1,99	5,07E-05	0,00428	1	S4 vs. S3
ATCG00860	Pt	complement(145291..152175)	11,85	0,99	1,99	9,25E-06	0,00124	0,26	S4 vs. S3
ATCG01280	Pt	complement(145291..152175)	11,85	0,99	1,99	9,25E-06	0,00124	0,26	S4 vs. S3
ATCG00840	Pt	152506..152787	42,13	0,99	1,99	2,48E-07	7,63E-05	0,00686	S4 vs. S3
ATCG01300	Pt	152506..152787	42,13	0,99	1,99	2,48E-07	7,63E-05	0,00686	S4 vs. S3
AT2G28000	2	11926446..11929488	19,74	1	2,01	7,65E-06	0,00108	0,21	S4 vs. S3
AT1G56045	3	3481020..3481485	13,39	1	2,01	7,71E-05	0,00588	1	S4 vs. S3
AT2G40205	3	3481020..3481485	13,39	1	2,01	7,71E-05	0,00588	1	S4 vs. S3
AT3G08520	3	3481020..3481485	13,39	1	2,01	7,71E-05	0,00588	1	S4 vs. S3
AT3G11120	3	3481020..3481485	13,39	1	2,01	7,71E-05	0,00588	1	S4 vs. S3
AT3G56020	3	3481020..3481485	13,39	1	2,01	7,71E-05	0,00588	1	S4 vs. S3
AT3G62030	3	22973004..22975378	37,53	1	2	2,32E-05	0,00243	0,64	S4 vs. S3
AT4G27010	4	13557974..13568439	1	1	2	3,59E-05	0,00337	0,99	S4 vs. S3
ATCG00860	Pt	86474..93358	11,98	1	2	1,48E-05	0,00178	0,41	S4 vs. S3
ATCG01280	Pt	86474..93358	11,98	1	2	1,48E-05	0,00178	0,41	S4 vs. S3
AT2G07715	2	3410597..3413161	7,23	1,01	2,02	6,78E-06	0,00101	0,19	S4 vs. S3
AT1G78490	1	29526861..29530669	7,96	1,02	2,02	4,14E-05	0,00373	1	S4 vs. S3
ATCG00350	Pt	complement(39605..41857)	364,85	1,02	2,02	9,14E-05	0,00664	1	S4 vs. S3
ATCG00840	Pt	complement(85862..86143)	43,15	1,02	2,03	2,65E-08	1,24E-05	0,000733	S4 vs. S3
ATCG01300	Pt	complement(85862..86143)	43,15	1,02	2,03	2,65E-08	1,24E-05	0,000733	S4 vs. S3
ATCG01010	Pt	complement(110398..112638)	26,41	1,02	2,03	3,59E-07	0,000102	0,00993	S4 vs. S3
AT3G06880	3	complement(2169768..2175771)	1,72	1,03	2,04	9,25E-05	0,0067	1	S4 vs. S3
AT1G08130	1	complement(2542663..2547946)	3,65	1,04	2,06	5,04E-05	0,00426	1	S4 vs. S3
AT3G05500	3	1593182..1595099	1,7	1,04	2,06	5,52E-05	0,00457	1	S4 vs. S3
AT4G17300	4	9681348..9684984	2,48	1,04	2,05	3,03E-05	0,00295	0,84	S4 vs. S3
AT3G51450	3	19090947..19092511	8,31	1,05	2,06	1,45E-05	0,00175	0,4	S4 vs. S3
ATCG00130	Pt	complement(11529..12798)	69,51	1,06	2,09	3,57E-07	0,000102	0,00986	S4 vs. S3
AT3G44630	3	16195848..16201225	3,02	1,08	2,12	5,68E-05	0,00466	1	S4 vs. S3
AT4G00180	4	complement(72545..75576)	4,26	1,08	2,11	7,34E-05	0,00568	1	S4 vs. S3
ATMG00940	Mt	complement(251403..251897)	6,48	1,08	2,11	1,67E-05	0,00195	0,46	S4 vs. S3
AT1G26230	1	complement(9072256..9075350)	1,19	1,09	2,13	9,64E-05	0,00691	1	S4 vs. S3
AT2G07779	2	complement(3254364..3255815)	2,82	1,09	2,13	1,97E-05	0,00222	0,55	S4 vs. S3
AT5G28500	5	10477556..10479384	7,59	1,09	2,13	1,17E-05	0,00149	0,32	S4 vs. S3
AT2G07835	2	complement(3501553..3502294)	32	1,1	2,14	1,25E-07	4,57E-05	0,00344	S4 vs. S3
AT2G34510	2	complement(14543894..14546986)	1,41	1,1	2,14	0,000117	0,00793	1	S4 vs. S3
AT3G63120	3	complement(23322359..23324283)	3,77	1,1	2,14	2,45E-05	0,00253	0,68	S4 vs. S3
AT5G01730	5	complement(272832..277886)	0,88	1,11	2,15	0,000117	0,00791	1	S4 vs. S3
ATMG00400	Mt	complement(110930..111403)	9,37	1,11	2,16	9,07E-05	0,00664	1	S4 vs. S3
AT3G52150	3	19342014..19343466	10,14	1,13	2,19	3,4E-06	0,000611	0,09	S4 vs. S3
AT5G08610	5	2790243..2794219	5,27	1,13	2,18	2,59E-05	0,00263	0,72	S4 vs. S3
AT3G50820	3	complement(18890874..18892508)	6,66	1,14	2,2	0,00016	0,00997	1	S4 vs. S3
AT2G33570	2	14216771..14219252	2,89	1,16	2,24	9,11E-05	0,00664	1	S4 vs. S3
ATCG00190	Pt	complement(23111..26329)	37,79	1,16	2,24	1,56E-06	0,000324	0,04	S4 vs. S3
AT1G69200	1	26016024..26018365	8,09	1,17	2,25	5,22E-06	0,000821	0,14	S4 vs. S3
AT1G79850	1	complement(30041243..30041952)	10,94	1,17	2,24	5,23E-05	0,00438	1	S4 vs. S3
AT5G22630	5	7524086..7526270	1,29	1,17	2,25	9,53E-05	0,00687	1	S4 vs. S3
AT5G62370	5	complement(25041819..25045047)	0,75	1,17	2,25	0,00011	0,00755	1	S4 vs. S3
AT3G05180	3	complement(1468398..1470624)	2,69	1,18	2,27	5,26E-05	0,0044	1	S4 vs. S3
AT5G02480	5	547436..549996	1,87	1,18	2,26	5,14E-05	0,00432	1	S4 vs. S3
AT4G29020	4	14304921..14305841	32,44	1,21	2,31	6,91E-05	0,00546	1	S4 vs. S3
ATCG00340	Pt	complement(37375..39579)	618,73	1,21	2,32	7,73E-06	0,00108	0,21	S4 vs. S3
AT2G47730	2	19556326..19559485	5,97	1,24	2,37	3,68E-07	0,000104	0,01	S4 vs. S3
AT3G52960	3	19639549..19640710	6,84	1,24	2,35	1,15E-05	0,00147	0,32	S4 vs. S3
AT1G58807	4	6887166..6889879	153,25	1,25	2,38	2,94E-05	0,00291	0,81	S4 vs. S3
AT1G59124	4	6887166..6889879	153,25	1,25	2,38	2,94E-05	0,00291	0,81	S4 vs. S3
AT4G11320	4	6887166..6889879	153,25	1,25	2,38	2,94E-05	0,00291	0,81	S4 vs. S3
AT4G34900	4	complement(16625517..16631370)	0,39	1,25	2,38	1,41E-05	0,00173	0,39	S4 vs. S3
AT1G76520	1	28714765..28717910	1,67	1,26	2,39	7,67E-05	0,00586	1	S4 vs. S3
AT4G34290	4	16410791..16412385	9,57	1,27	2,42	4,02E-07	0,00011	0,01	S4 vs. S3
AT1G20450	1	complement(7087903..7089606)	12,4	1,28	2,42	1,49E-06	0,000318	0,04	S4 vs. S3
AT2G33580	2	complement(14219481..14222254)	1,74	1,28	2,44	2,42E-05	0,0025	0,67	S4 vs. S3
AT4G38970	4	complement(18163496..18166008)	27,62	1,28	2,43	4,53E-05	0,00396	1	S4 vs. S3
AT2G30020	2	12814271..12816360	3,38	1,31	2,49	2,69E-07	7,99E-05	0,00743	S4 vs. S3
AT5G26670	5	9317968..9321076	2,01	1,31	2,47	5,92E-05	0,00481	1	S4 vs. S3
AT1G18970	1	complement(27339114..27340044)	51,49	1,32	2,49	7,55E-05	0,00582	1	S4 vs. S3
AT1G72610	1	complement(27339114..27340044)	51,49	1,32	2,49	7,55E-05	0,00582	1	S4 vs. S3
AT1G78060	1	complement(29349679..29352946)	3,06	1,32	2,49	7,77E-07	0,000181	0,02	S4 vs. S3
ATCG00120	Pt	complement(9938..11461)	730,68	1,32	2,5	2,66E-07	7,99E-05	0,00736	S4 vs. S3
AT1G70820	1	26705420..26708265	6,89	1,33	2,51	7,74E-05	0,00588	1	S4 vs. S3
AT5G07030	5	complement(2183328..2185972)	23,68	1,33	2,52	8,89E-05	0,00661	1	S4 vs. S3
AT5G37600	5	complement(14933286..14935885)	4,32	1,33	2,51	0,000105	0,00736	1	S4 vs. S3
AT1G31835	1	complement(11422636..11423684)	3,14	1,34	2,53	2,85E-06	0,000539	0,08	S4 vs. S3
AT4G27730	4	complement(13833807..13836661)	2,55	1,34	2,54	3,36E-05	0,00318	0,93	S4 vs. S3
AT1G17380	1	complement(5955155..5957511)	5,05	1,37	2,59	9,76E-05	0,00697	1	S4 vs. S3
AT5G18570	5	complement(6171572..6174944)	5,76	1,37	2,58	6,27E-07	0,000154	0,02	S4 vs. S3
AT3G16860	3	complement(5759375..5762264)	1,61	1,38	2,61	1,27E-06	0,000278	0,04	S4 vs. S3
AT4G23810	4	complement(12392370..12393982)	1,12	1,38	2,6	0,000109	0,00753	1	S4 vs. S3
AT3G03600	Pt	complement(15013..15723)	87,15	1,38	2,61	2,02E-08	9,82E-06	0,000559	S4 vs. S3
AT4G26090	Pt	complement(15013..15723)	87,15	1,38	2,61	2,02E-08	9,82E-06	0,000559	S4 vs. S3
ATCG00160	Pt	complement(15013..15723)	87,15	1,38	2,61	2,02E-08	9,82E-06	0,000559	S4 vs. S3
AT1G15000	1	5168464..5170066	2,83	1,39	2,62	1,54E-05	0,00182	0,42	S4 vs. S3
AT2G15620	2	6810395..6812941	2,34	1,39	2,63	2,67E-05	0,00269	0,74	S4 vs. S3
ATCG00270	Pt	32711..33772	394,03	1,39	2,61	8,29E-07	0,000191	0,02	S4 vs. S3
AT2G43290	2	complement(17991052..17992047)	4,83	1,4	2,64	8,27E-05	0,00619	1	S4 vs. S3
AT3G44720	3	16271511..16273413	1,99	1,4	2,64	3,97E-05	0,00366	1	S4 vs. S3
AT1G33600	1	12180483..12184528	1,8	1,41	2,65	7,1E-05	0,00554	1	S4 vs. S3
ATCG00180	Pt	complement(20251..23084)	64,17	1,42	2,67	3,88E-09	2,56E-06	0,000107	S4 vs. S3
AT5G53880	5	complement(21872701..21873454)	13,84	1,43	2,69	7,75E-06	0,00108	0,21	S4 vs. S3
AT1G02810	1	618061..620502	0,9	1,44	2,71	6,75E-05	0,00536	1	S4 vs. S3
AT5G47240	5	19183523..19185644	5,9	1,44	2,71	6,05E-05	0,0049	1	S4 vs. S3
AT2G37390	2	15694038..15695999	0,52	1,46	2,76	0,000129	0,00851	1	S4 vs. S3
AT5G11740	5	3783930..3784963	31,84	1,47	2,77	6,51E-07	0,000158	0,02	S4 vs. S3
ATMG01330	Mt	complement(329082..329465)	6,83	1,47	2,77	1,83E-05	0,00207	0,51	S4 vs. S3
AT2G07641	2	complement(3389612..3390726)	22,68	1,48	2,78	1,04E-07	3,94E-05	0,00288	S4 vs. S3
AT3G56330	3	20890235..20892002	1,89	1,49	2,82	4,58E-06	0,000746	0,13	S4 vs. S3
AT4G33010	4	complement(15926652..15931422)	13,09	1,49	2,82	3,02E-06	0,000565	0,08	S4 vs. S3
AT5G64310	5	25721733..25722678	11,48	1,49	2,82	5,01E-06	0,000792	0,14	S4 vs. S3
AT2G07787	2	3476873..3478704	8,5	1,51	2,85	1,58E-09	1,37E-06	4,38E-05	S4 vs. S3
AT3G03780	3	956862..961032	1,56	1,51	2,84	3,76E-05	0,0035	1	S4 vs. S3
ATCG00280	Pt	33720..35141	570,47	1,51	2,85	3,79E-07	0,000106	0,01	S4 vs. S3
AT4G27820	4	complement(13857650..13860745)	1,36	1,52	2,87	6,02E-06	0,00091	0,17	S4 vs. S3
AT5G28020	5	complement(10026152..10028722)	1,11	1,52	2,87	4,15E-05	0,00373	1	S4 vs. S3
AT3G17890	3	6127001..6128315	1,66	1,53	2,89	1,29E-07	4,57E-05	0,00355	S4 vs. S3
AT5G62020	5	24915807..24917643	2,36	1,53	2,89	4,92E-05	0,00419	1	S4 vs. S3
AT2G01610	2	complement(273895..275002)	2,86	1,54	2,91	3,26E-06	0,000594	0,09	S4 vs. S3
AT3G15210	3	5121303..5122562	3,79	1,54	2,92	1,41E-05	0,00173	0,39	S4 vs. S3
AT2G26580	2	complement(11303455..11307010)	1,37	1,55	2,93	0,000154	0,00972	1	S4 vs. S3
AT3G13470	3	4389215..4393015	8,65	1,55	2,93	6,86E-06	0,00101	0,19	S4 vs. S3
AT4G32020	4	15487914..15490048	20,86	1,55	2,93	9,34E-08	3,74E-05	0,00258	S4 vs. S3
AT4G12730	4	complement(7491227..7493080)	4,29	1,56	2,95	9,85E-05	0,00702	1	S4 vs. S3
AT2G22500	2	complement(9562774..9564850)	5,32	1,57	2,96	6,96E-05	0,00548	1	S4 vs. S3
AT3G62260	3	complement(23038266..23040668)	1,97	1,58	2,99	9,74E-07	0,000219	0,03	S4 vs. S3
AT1G73500	1	complement(27639091..27640643)	2,56	1,6	3,04	3,25E-05	0,00309	0,9	S4 vs. S3
AT5G37540	5	14912659..14914449	2,83	1,61	3,05	1,28E-07	4,57E-05	0,00354	S4 vs. S3
ATCG00170	Pt	complement(15938..20068)	33,61	1,61	3,05	3,04E-09	2,34E-06	8,4E-05	S4 vs. S3
AT4G27510	4	complement(13746176..13749131)	0,47	1,62	3,07	2,12E-05	0,00232	0,59	S4 vs. S3
AT5G64870	5	complement(25929432..25931384)	5,08	1,62	3,07	9,54E-05	0,00687	1	S4 vs. S3
AT3G10300	3	3186038..3188540	2,97	1,64	3,11	4,58E-10	4,74E-07	1,27E-05	S4 vs. S3
AT5G45280	5	18345534..18349695	1,23	1,66	3,15	5,32E-05	0,00443	1	S4 vs. S3
AT3G56400	3	complement(20908711..20910623)	2,34	1,67	3,18	1,56E-05	0,00183	0,43	S4 vs. S3
AT4G24390	4	complement(12613076..12616238)	5,63	1,67	3,17	7,67E-12	3,53E-08	2,12E-07	S4 vs. S3
AT4G27270	4	complement(13661201..13663371)	0,85	1,68	3,22	3,26E-06	0,000594	0,09	S4 vs. S3
AT4G30440	4	complement(14881689..14883583)	11,82	1,68	3,2	4,2E-08	1,81E-05	0,00116	S4 vs. S3
AT3G43600	3	complement(15511832..15517545)	0,39	1,71	3,28	1,53E-05	0,00182	0,42	S4 vs. S3
AT1G18300	1	6299669..6301139	5,06	1,72	3,29	2E-06	0,0004	0,06	S4 vs. S3
AT5G59550	5	complement(23998164..24000166)	2,53	1,73	3,32	4,34E-06	0,000719	0,12	S4 vs. S3
AT4G39950	4	18525042..18527602	3,79	1,76	3,38	0,00015	0,00961	1	S4 vs. S3
AT5G06310	5	1928343..1930951	1,27	1,76	3,38	3,48E-06	0,000622	0,1	S4 vs. S3
AT3G07800	3	complement(2489387..2491180)	1,88	1,77	3,4	2,12E-07	6,82E-05	0,00587	S4 vs. S3
AT5G52320	5	complement(21244723..21246774)	2,72	1,78	3,44	2,46E-05	0,00253	0,68	S4 vs. S3
AT4G31500	4	complement(15273410..15275404)	6,36	1,82	3,53	4,15E-07	0,00011	0,01	S4 vs. S3
AT3G19508	3	complement(6762034..6762754)	1,36	1,83	3,56	0,000107	0,0075	1	S4 vs. S3
AT1G09070	1	2927502..2929107	11,9	1,85	3,6	5,13E-09	3,1E-06	0,000142	S4 vs. S3
AT1G72520	1	27308513..27312756	4,65	1,87	3,64	4,9E-06	0,000779	0,14	S4 vs. S3
AT4G17500	4	9759203..9760391	1,9	1,87	3,64	6,25E-06	0,000939	0,17	S4 vs. S3
AT4G23990	4	12456342..12460753	1,18	1,87	3,66	3,04E-08	1,34E-05	0,00084	S4 vs. S3
AT5G21960	5	complement(7258037..7259568)	2,8	1,88	3,69	2,27E-07	7,13E-05	0,00627	S4 vs. S3
AT3G45140	3	16525245..16529352	154,2	1,89	3,72	4,29E-05	0,00384	1	S4 vs. S3
AT1G17420	1	5977323..5981521	4,75	1,91	3,75	1,41E-06	0,000304	0,04	S4 vs. S3
AT1G73325	1	complement(27567419..27568281)	2,21	1,91	3,75	8,67E-05	0,00646	1	S4 vs. S3
AT2G10940	2	complement(4310321..4312162)	9,78	1,91	3,77	0,00016	0,00997	1	S4 vs. S3
AT1G11850	1	3999157..4000024	12,03	1,94	3,84	1,28E-05	0,00161	0,36	S4 vs. S3
AT1G66500	1	complement(24811080..24812661)	5,08	1,95	3,87	1,92E-06	0,000388	0,05	S4 vs. S3
AT2G41010	2	complement(17113798..17115047)	2,04	1,97	3,92	3,16E-05	0,00301	0,87	S4 vs. S3
AT3G25780	3	9409160..9411090	0,63	1,99	3,98	2,2E-05	0,00236	0,61	S4 vs. S3
AT5G24530	5	8378759..8383401	1,16	2	4	6,62E-05	0,00528	1	S4 vs. S3
AT1G74450	1	27982453..27984280	2,77	2,01	4,02	1,96E-07	6,39E-05	0,00543	S4 vs. S3
AT1G52240	1	complement(19455495..19458069)	0,4	2,03	4,09	0,00011	0,00755	1	S4 vs. S3
AT3G49710	3	18437845..18440010	2,82	2,04	4,12	3,04E-09	2,34E-06	8,42E-05	S4 vs. S3
AT3G03030	3	682054..684083	0,65	2,05	4,15	0,000124	0,00836	1	S4 vs. S3
AT3G56880	3	21059785..21061247	15,01	2,05	4,15	1,93E-10	3,08E-07	5,33E-06	S4 vs. S3
AT3G57450	3	21261046..21262763	3,66	2,12	4,35	2,22E-07	7,06E-05	0,00614	S4 vs. S3
AT5G13930	5	4488476..4490264	14,38	2,13	4,37	2,17E-05	0,00235	0,6	S4 vs. S3
AT4G13395	4	complement(7785428..7786161)	3,17	2,14	4,41	2,9E-05	0,0029	0,8	S4 vs. S3
AT4G19430	4	complement(10598371..10599182)	3,42	2,16	4,46	2,01E-05	0,00224	0,55	S4 vs. S3
AT3G28340	3	complement(10588947..10590685)	1,02	2,17	4,49	9,1E-05	0,00664	1	S4 vs. S3
AT4G34150	4	16354857..16357460	10,8	2,17	4,51	3,75E-09	2,53E-06	0,000104	S4 vs. S3
AT5G06320	5	complement(1930793..1931782)	18,63	2,17	4,49	2,1E-05	0,00232	0,58	S4 vs. S3
AT5G13190	5	complement(4204085..4206475)	3,73	2,17	4,5	9,54E-06	0,00127	0,26	S4 vs. S3
AT3G46620	3	complement(17178601..17180559)	8,82	2,18	4,53	7,47E-09	4,31E-06	0,000207	S4 vs. S3
AT1G79890	1	30048519..30052203	0,28	2,2	4,58	1,3E-06	0,000283	0,04	S4 vs. S3
AT4G27652	4	13809779..13810462	1,57	2,22	4,65	6,22E-05	0,00502	1	S4 vs. S3
AT3G50930	3	18929526..18932181	0,61	2,24	4,73	4,85E-05	0,00416	1	S4 vs. S3
AT3G57920	3	complement(21444243..21446035)	0,8	2,25	4,75	5,37E-06	0,000834	0,15	S4 vs. S3
AT5G62210	5	complement(24986294..24987811)	2,4	2,26	4,79	7,65E-06	0,00108	0,21	S4 vs. S3
AT3G01550	3	complement(216805..219136)	1,44	2,27	4,82	1,52E-06	0,000319	0,04	S4 vs. S3
AT5G05410	5	1602205..1604112	5,09	2,27	4,81	3,26E-10	3,92E-07	9,03E-06	S4 vs. S3
AT3G50060	3	complement(18557607..18559326)	10,61	2,29	4,9	2,23E-10	3,08E-07	6,16E-06	S4 vs. S3
AT1G27770	1	complement(9671632..9676307)	4,97	2,3	4,92	2,31E-07	7,18E-05	0,00639	S4 vs. S3
AT3G52720	1	complement(9671632..9676307)	4,97	2,3	4,92	2,31E-07	7,18E-05	0,00639	S4 vs. S3
AT1G73540	1	complement(27645552..27646743)	6,95	2,3	4,91	8,22E-08	3,44E-05	0,00227	S4 vs. S3
AT2G45080	2	18591628..18592729	0,72	2,32	5,01	2,07E-06	0,000412	0,06	S4 vs. S3
AT3G12960	3	4136453..4136828	1,51	2,33	5,03	0,000157	0,00983	1	S4 vs. S3
AT4G15210	4	complement(8666334..8669526)	10,73	2,38	5,22	4,85E-06	0,000779	0,13	S4 vs. S3
AT2G05940	2	complement(2287238..2289636)	0,93	2,39	5,23	4,14E-07	0,00011	0,01	S4 vs. S3
AT1G14190	1	4852522..4854307	0,68	2,45	5,45	5,89E-06	0,000894	0,16	S4 vs. S3
AT5G55380	5	complement(22446624..22447953)	0,48	2,45	5,45	9,63E-05	0,00691	1	S4 vs. S3
AT5G61600	5	complement(24766344..24767732)	4,78	2,46	5,49	7,37E-06	0,00106	0,2	S4 vs. S3
AT1G65890	1	complement(24512438..24514659)	0,56	2,49	5,62	0,000108	0,00753	1	S4 vs. S3
AT5G47230	5	19179881..19181182	1,27	2,51	5,7	3E-05	0,00293	0,83	S4 vs. S3
AT1G02450	1	complement(497917..498539)	1,3	2,55	5,86	1,24E-05	0,00157	0,34	S4 vs. S3
AT1G74930	1	28143851..28145058	2,15	2,55	5,84	1,56E-07	5,38E-05	0,00431	S4 vs. S3
AT2G28500	2	complement(12186274..12188293)	0,56	2,61	6,12	2,88E-06	0,000542	0,08	S4 vs. S3
AT2G30630	2	complement(13046662..13049219)	0,39	2,61	6,12	3,9E-06	0,000665	0,11	S4 vs. S3
AT3G02020	3	complement(337712..343912)	0,14	2,61	6,1	4,5E-05	0,00395	1	S4 vs. S3
AT4G16590	4	9345150..9349258	1,71	2,61	6,1	4,31E-06	0,000717	0,12	S4 vs. S3
AT4G18290	4	10114794..10118652	0,69	2,62	6,17	2,22E-05	0,00236	0,61	S4 vs. S3
AT5G59820	5	24102814..24103794	5,3	2,69	6,46	1,26E-05	0,00159	0,35	S4 vs. S3
AT1G20510	1	complement(7103362..7106121)	5,91	2,7	6,48	0	0	0	S4 vs. S3
AT3G55980	3	20776220..20778952	14,05	2,76	6,79	5,72E-07	0,000148	0,02	S4 vs. S3
AT3G61190	3	complement(22650159..22651636)	2,48	2,82	7,07	1,7E-07	5,75E-05	0,00471	S4 vs. S3
AT2G23430	4	complement(13663415..13664621)	30,56	2,83	7,09	3,7E-09	2,53E-06	0,000102	S4 vs. S3
AT4G27280	4	complement(13663415..13664621)	30,56	2,83	7,09	3,7E-09	2,53E-06	0,000102	S4 vs. S3
AT4G34880	4	16615391..16617586	0,21	2,86	7,25	3,66E-05	0,00342	1	S4 vs. S3
AT5G37770	5	complement(14997514..14999619)	6,68	2,91	7,52	1,53E-10	2,81E-07	4,22E-06	S4 vs. S3
AT1G72360	1	27241696..27242968	0,77	2,96	7,76	2,55E-06	0,000494	0,07	S4 vs. S3
AT1G15125	1	5204312..5205964	0,51	2,97	7,86	4,79E-05	0,00414	1	S4 vs. S3
AT3G09870	3	complement(3027424..3027961)	5,31	2,99	7,96	8,27E-09	4,67E-06	0,000229	S4 vs. S3
AT3G24500	3	8918267..8919683	1,43	2,99	7,93	3,18E-10	3,92E-07	8,79E-06	S4 vs. S3
AT4G27657	4	13812989..13813701	0,67	2,99	7,97	0,000105	0,00734	1	S4 vs. S3
AT1G18740	1	6463849..6465476	6,18	3,01	8,06	1,97E-09	1,65E-06	5,45E-05	S4 vs. S3
AT2G44840	2	18495215..18496327	2,01	3,01	8,05	3,73E-10	4,15E-07	1,03E-05	S4 vs. S3
AT1G70640	1	26636110..26637876	0,33	3,02	8,1	7,61E-05	0,00584	1	S4 vs. S3
AT5G02920	5	680492..681777	0,54	3,07	8,42	6,86E-06	0,00101	0,19	S4 vs. S3
AT1G23300	1	complement(8262939..8266048)	0,5	3,08	8,43	2,68E-07	7,99E-05	0,00741	S4 vs. S3
AT3G48920	3	18139172..18140772	0,53	3,08	8,44	2,73E-06	0,00052	0,08	S4 vs. S3
AT1G04800	1	complement(1348452..1349478)	2,09	3,1	8,59	1,21E-06	0,000267	0,03	S4 vs. S3
AT5G41750	5	16693832..16699028	0,55	3,1	8,56	1,42E-06	0,000304	0,04	S4 vs. S3
AT3G08900	3	complement(2708086..2709949)	0,24	3,13	8,77	4,01E-05	0,00367	1	S4 vs. S3
AT4G29780	4	14579563..14582057	18,37	3,13	8,76	4,62E-10	4,74E-07	1,28E-05	S4 vs. S3
AT5G63130	5	25322975..25324739	0,3	3,16	8,96	4,78E-05	0,00414	1	S4 vs. S3
AT1G19780	1	complement(6833669..6836633)	1,95	3,18	9,07	4,04E-11	1,02E-07	1,12E-06	S4 vs. S3
AT1G09080	1	complement(2929217..2931850)	0,54	3,19	9,13	7,4E-05	0,00572	1	S4 vs. S3
AT2G35290	2	complement(14861199..14862178)	1,3	3,23	9,37	2,11E-08	1,01E-05	0,000585	S4 vs. S3
AT4G03220	4	1417472..1419148	1,05	3,23	9,4	1,13E-08	6,24E-06	0,000312	S4 vs. S3
AT4G26390	4	13342116..13344617	0,29	3,33	10,03	3,05E-05	0,00295	0,84	S4 vs. S3
AT5G11210	5	complement(3571020..3574817)	0,1	3,33	10,02	0,000126	0,00844	1	S4 vs. S3
AT4G11280	4	6863979..6866116	13,55	3,44	10,82	1,78E-15	1,23E-11	4,91E-11	S4 vs. S3
AT5G19790	5	complement(6689108..6690040)	0,43	3,51	11,41	2,99E-05	0,00293	0,83	S4 vs. S3
AT3G14140	3	4688546..4690404	0,35	3,52	11,45	4,18E-06	0,000701	0,12	S4 vs. S3
AT3G48080	3	complement(17752463..17755190)	0,2	3,62	12,29	1,77E-05	0,00203	0,49	S4 vs. S3
AT4G24570	4	12686459..12687650	13,01	3,63	12,37	6,93E-11	1,47E-07	1,92E-06	S4 vs. S3
AT1G22670	1	complement(8021835..8023516)	0,37	3,66	12,68	3,16E-05	0,00301	0,87	S4 vs. S3
AT4G24580	4	complement(12687879..12694656)	0,71	3,67	12,77	1,28E-10	2,54E-07	3,55E-06	S4 vs. S3
AT3G44260	3	complement(15952008..15953346)	14,32	3,7	13,01	1,23E-11	3,78E-08	3,4E-07	S4 vs. S3
AT5G45340	5	complement(18368532..18371021)	1,26	3,71	13,11	4,36E-09	2,8E-06	0,000121	S4 vs. S3
AT1G19210	1	complement(6626794..6627688)	0,68	3,73	13,29	3,82E-06	0,000656	0,11	S4 vs. S3
AT1G07135	1	complement(2189877..2190784)	17,93	3,8	13,96	1,29E-07	4,57E-05	0,00357	S4 vs. S3
AT1G74830	1	complement(28113194..28115281)	0,47	3,8	13,92	6,89E-07	0,000163	0,02	S4 vs. S3
AT4G34410	4	16451876..16453260	1,37	3,81	14,03	3,05E-08	1,34E-05	0,000843	S4 vs. S3
AT1G28370	1	complement(9955774..9956980)	0,25	3,83	14,2	9,02E-05	0,00663	1	S4 vs. S3
AT1G37130	1	14158452..14161938	1,76	3,87	14,64	2,15E-10	3,08E-07	5,96E-06	S4 vs. S3
AT4G40020	4	complement(18553168..18555355)	0,18	3,9	14,97	0,000129	0,00851	1	S4 vs. S3
AT2G41120	2	complement(17141275..17142485)	0,65	3,93	15,24	5,45E-06	0,000842	0,15	S4 vs. S3
AT3G56660	3	complement(20986109..20988320)	0,47	4,06	16,65	1,16E-08	6,31E-06	0,000322	S4 vs. S3
AT1G21100	1	complement(7386762..7388512)	0,29	4,08	16,91	1,14E-05	0,00147	0,32	S4 vs. S3
AT1G28327	1	9931934..9933451	0,46	4,1	17,12	3,06E-06	0,000569	0,08	S4 vs. S3
AT2G39650	2	complement(16527730..16529494)	1,84	4,23	18,82	2,98E-10	3,92E-07	8,24E-06	S4 vs. S3
AT2G40580	2	16943864..16945003	0,91	4,28	19,42	8,19E-10	7,55E-07	2,26E-05	S4 vs. S3
AT3G50800	3	complement(18882112..18883033)	1	4,35	20,42	1,49E-07	5,23E-05	0,00413	S4 vs. S3
AT5G57190	5	complement(23171049..23175495)	0,71	4,35	20,35	1,85E-10	3,08E-07	5,12E-06	S4 vs. S3
AT3G16420	5	22121102..22122122	0,47	4,38	20,77	6,49E-06	0,00097	0,18	S4 vs. S3
AT5G54490	5	22121102..22122122	0,47	4,38	20,77	6,49E-06	0,00097	0,18	S4 vs. S3
AT4G13390	4	7783791..7785366	0,29	4,43	21,62	0,000127	0,00844	1	S4 vs. S3
AT2G30560	2	13017347..13019000	0,58	4,66	25,21	1,14E-05	0,00147	0,31	S4 vs. S3
AT1G24793	1	8833245..8835235	0,34	4,68	25,7	0,000154	0,00972	1	S4 vs. S3
AT1G25054	1	8833245..8835235	0,34	4,68	25,7	0,000154	0,00972	1	S4 vs. S3
AT1G25145	1	8833245..8835235	0,34	4,68	25,7	0,000154	0,00972	1	S4 vs. S3
AT1G25210	1	8833245..8835235	0,34	4,68	25,7	0,000154	0,00972	1	S4 vs. S3
AT5G36670	5	14401030..14406730	0,22	4,91	30,01	2,71E-05	0,00272	0,75	S4 vs. S3
AT1G27730	1	complement(9648021..9649323)	0,67	4,92	30,34	3E-08	1,34E-05	0,000831	S4 vs. S3
AT2G31500	2	13413738..13416602	0,19	4,93	30,57	2,52E-05	0,00258	0,7	S4 vs. S3
AT2G27520	2	11762061..11763143	0,43	5,02	32,52	2,38E-06	0,000463	0,07	S4 vs. S3
AT3G57460	3	complement(21262986..21265827)	1,02	5,08	33,71	7,31E-10	6,97E-07	2,02E-05	S4 vs. S3
AT3G56790	3	complement(21033777..21034455)	1,51	5,22	37,34	2,02E-08	9,82E-06	0,00056	S4 vs. S3
AT1G19190	1	6623823..6624977	0,86	5,3	39,38	2,92E-08	1,34E-05	0,000808	S4 vs. S3
AT3G52600	3	complement(19506891..19509412)	1,44	5,31	39,55	0	0	0	S4 vs. S3
AT2G27080	2	11563933..11567504	0,83	5,54	46,37	3,29E-09	2,45E-06	9,09E-05	S4 vs. S3
AT2G26150	2	11135624..11137792	1,7	5,84	57,13	1,11E-16	1,02E-12	3,07E-12	S4 vs. S3
AT1G48930	1	complement(18101643..18104768)	0,45	6,04	65,8	2,13E-10	3,08E-07	5,88E-06	S4 vs. S3
AT1G18310	1	complement(6301200..6303956)	0,37	6,1	68,59	4,13E-07	0,00011	0,01	S4 vs. S3
AT1G58848	1	21791688..21797050	0,15	8,15	284,71	0,000135	0,00872	1	S4 vs. S3
AT1G59218	1	21791688..21797050	0,15	8,15	284,71	0,000135	0,00872	1	S4 vs. S3
AT5G67310	5	complement(26855216..26857086)	0,37	8,19	291,27	9,88E-05	0,00702	1	S4 vs. S3
