Sample_ID	Experiment Accession	Project Accession	Sample Accession	Submission Accession	BioProject	BioSample	Center	Center Project	Design	Study Title	Library Name	Library Strategy	Library Source	Library Selection	Scientific Name	Instrument	Cultivar	Development Stage	Geographic Location	Tissue	Stage
SRR8325095	SRX5136941	SRP173523	SRS4149252	SRA823509	PRJNA507622	SAMN10589063	The Institute for Information Transmission Problems	Solanum lycopersicum	RNA was extracted using RNeasy mini kit (Qiagen) following manufacturers protocol. RNA quality was controlled using capillary electrophoresis on Bioanalyzer 2100 (Agilent).  PolyA mRNA were extracted using TruSeq RNA Sample Prep Kits v2 (Illumina, USA) in 0.4 of the recommended volume due to the small amounts of RNA in some samples. Illumina cDNA libraries were constructed with the NEBNext Ultra II RNA Library Prep Kit for Illumina (New England BioLabs, USA) following the manufacturers protocol in 0.5 of the recommended volume.	Transcriptome map of Solanum lycopersicum	Sol.OV_rep2_NextSeq	RNA-Seq	TRANSCRIPTOMIC	PolyA	Solanum lycopersicum	NextSeq 500	Micro-Tom	Flowering plant	Russia: Moscow	Ovaries before pollination rep2	Ovaries
SRR8325099	SRX5136938	SRP173523	SRS4149252	SRA823509	PRJNA507622	SAMN10589063	The Institute for Information Transmission Problems	Solanum lycopersicum	RNA was extracted using RNeasy mini kit (Qiagen) following manufacturers protocol. RNA quality was controlled using capillary electrophoresis on Bioanalyzer 2100 (Agilent).  PolyA mRNA were extracted using TruSeq RNA Sample Prep Kits v2 (Illumina, USA) in 0.4 of the recommended volume due to the small amounts of RNA in some samples. Illumina cDNA libraries were constructed with the NEBNext Ultra II RNA Library Prep Kit for Illumina (New England BioLabs, USA) following the manufacturers protocol in 0.5 of the recommended volume.	Transcriptome map of Solanum lycopersicum	Sol.OV_rep2_HiSeq2000	RNA-Seq	TRANSCRIPTOMIC	PolyA	Solanum lycopersicum	Illumina HiSeq 2000	Micro-Tom	Flowering plant	Russia: Moscow	Ovaries before pollination rep2	Ovaries
SRR8325097	SRX5136939	SRP173523	SRS4149254	SRA823509	PRJNA507622	SAMN10589062	The Institute for Information Transmission Problems	Solanum lycopersicum	RNA was extracted using RNeasy mini kit (Qiagen) following manufacturers protocol. RNA quality was controlled using capillary electrophoresis on Bioanalyzer 2100 (Agilent).  PolyA mRNA were extracted using TruSeq RNA Sample Prep Kits v2 (Illumina, USA) in 0.4 of the recommended volume due to the small amounts of RNA in some samples. Illumina cDNA libraries were constructed with the NEBNext Ultra II RNA Library Prep Kit for Illumina (New England BioLabs, USA) following the manufacturers protocol in 0.5 of the recommended volume.	Transcriptome map of Solanum lycopersicum	Sol.OV_rep1_HiSeq2000	RNA-Seq	TRANSCRIPTOMIC	PolyA	Solanum lycopersicum	Illumina HiSeq 2000	Micro-Tom	Flowering plant	Russia: Moscow	Ovaries before pollination rep1	Ovaries
SRR8325104	SRX5136932	SRP173523	SRS4149243	SRA823509	PRJNA507622	SAMN10589055	The Institute for Information Transmission Problems	Solanum lycopersicum	RNA was extracted using RNeasy mini kit (Qiagen) following manufacturers protocol. RNA quality was controlled using capillary electrophoresis on Bioanalyzer 2100 (Agilent).  PolyA mRNA were extracted using TruSeq RNA Sample Prep Kits v2 (Illumina, USA) in 0.4 of the recommended volume due to the small amounts of RNA in some samples. Illumina cDNA libraries were constructed with the NEBNext Ultra II RNA Library Prep Kit for Illumina (New England BioLabs, USA) following the manufacturers protocol in 0.5 of the recommended volume.	Transcriptome map of Solanum lycopersicum	Sol.CA.y_rep2_NextSeq	RNA-Seq	TRANSCRIPTOMIC	PolyA	Solanum lycopersicum	NextSeq 500	Micro-Tom	Flowering plant	Russia: Moscow	Young carpels rep2	Young carpels
SRR8325112	SRX5136924	SRP173523	SRS4149243	SRA823509	PRJNA507622	SAMN10589055	The Institute for Information Transmission Problems	Solanum lycopersicum	RNA was extracted using RNeasy mini kit (Qiagen) following manufacturers protocol. RNA quality was controlled using capillary electrophoresis on Bioanalyzer 2100 (Agilent).  PolyA mRNA were extracted using TruSeq RNA Sample Prep Kits v2 (Illumina, USA) in 0.4 of the recommended volume due to the small amounts of RNA in some samples. Illumina cDNA libraries were constructed with the NEBNext Ultra II RNA Library Prep Kit for Illumina (New England BioLabs, USA) following the manufacturers protocol in 0.5 of the recommended volume.	Transcriptome map of Solanum lycopersicum	Sol.CA.y_rep2_HiSeq2000	RNA-Seq	TRANSCRIPTOMIC	PolyA	Solanum lycopersicum	Illumina HiSeq 2000	Micro-Tom	Flowering plant	Russia: Moscow	Young carpels rep2	Young carpels
SRR8325111	SRX5136925	SRP173523	SRS4149241	SRA823509	PRJNA507622	SAMN10589054	The Institute for Information Transmission Problems	Solanum lycopersicum	RNA was extracted using RNeasy mini kit (Qiagen) following manufacturers protocol. RNA quality was controlled using capillary electrophoresis on Bioanalyzer 2100 (Agilent).  PolyA mRNA were extracted using TruSeq RNA Sample Prep Kits v2 (Illumina, USA) in 0.4 of the recommended volume due to the small amounts of RNA in some samples. Illumina cDNA libraries were constructed with the NEBNext Ultra II RNA Library Prep Kit for Illumina (New England BioLabs, USA) following the manufacturers protocol in 0.5 of the recommended volume.	Transcriptome map of Solanum lycopersicum	Sol.CA.y_rep1_NextSeq	RNA-Seq	TRANSCRIPTOMIC	PolyA	Solanum lycopersicum	NextSeq 500	Micro-Tom	Flowering plant	Russia: Moscow	Young carpels rep1	Young carpels
SRR8325117	SRX5136920	SRP173523	SRS4149241	SRA823509	PRJNA507622	SAMN10589054	The Institute for Information Transmission Problems	Solanum lycopersicum	RNA was extracted using RNeasy mini kit (Qiagen) following manufacturers protocol. RNA quality was controlled using capillary electrophoresis on Bioanalyzer 2100 (Agilent).  PolyA mRNA were extracted using TruSeq RNA Sample Prep Kits v2 (Illumina, USA) in 0.4 of the recommended volume due to the small amounts of RNA in some samples. Illumina cDNA libraries were constructed with the NEBNext Ultra II RNA Library Prep Kit for Illumina (New England BioLabs, USA) following the manufacturers protocol in 0.5 of the recommended volume.	Transcriptome map of Solanum lycopersicum	Sol.CA.y_rep1_HiSeq2000	RNA-Seq	TRANSCRIPTOMIC	PolyA	Solanum lycopersicum	Illumina HiSeq 2000	Micro-Tom	Flowering plant	Russia: Moscow	Young carpels rep1	Young carpels
SRR8325102	SRX5136935	SRP173523	SRS4149246	SRA823509	PRJNA507622	SAMN10589047	The Institute for Information Transmission Problems	Solanum lycopersicum	RNA was extracted using RNeasy mini kit (Qiagen) following manufacturers protocol. RNA quality was controlled using capillary electrophoresis on Bioanalyzer 2100 (Agilent).  PolyA mRNA were extracted using TruSeq RNA Sample Prep Kits v2 (Illumina, USA) in 0.4 of the recommended volume due to the small amounts of RNA in some samples. Illumina cDNA libraries were constructed with the NEBNext Ultra II RNA Library Prep Kit for Illumina (New England BioLabs, USA) following the manufacturers protocol in 0.5 of the recommended volume.	Transcriptome map of Solanum lycopersicum	Sol.CA.ad_rep2_HiSeq2000	RNA-Seq	TRANSCRIPTOMIC	PolyA	Solanum lycopersicum	Illumina HiSeq 2000	Micro-Tom	Flowering plant	Russia: Moscow	Mature carpels rep2	Mature carpels
SRR8325109	SRX5136928	SRP173523	SRS4149246	SRA823509	PRJNA507622	SAMN10589047	The Institute for Information Transmission Problems	Solanum lycopersicum	RNA was extracted using RNeasy mini kit (Qiagen) following manufacturers protocol. RNA quality was controlled using capillary electrophoresis on Bioanalyzer 2100 (Agilent).  PolyA mRNA were extracted using TruSeq RNA Sample Prep Kits v2 (Illumina, USA) in 0.4 of the recommended volume due to the small amounts of RNA in some samples. Illumina cDNA libraries were constructed with the NEBNext Ultra II RNA Library Prep Kit for Illumina (New England BioLabs, USA) following the manufacturers protocol in 0.5 of the recommended volume.	Transcriptome map of Solanum lycopersicum	Sol.CA.ad_rep2_NextSeq	RNA-Seq	TRANSCRIPTOMIC	PolyA	Solanum lycopersicum	NextSeq 500	Micro-Tom	Flowering plant	Russia: Moscow	Mature carpels rep2	Mature carpels
SRR8325103	SRX5136933	SRP173523	SRS4149249	SRA823509	PRJNA507622	SAMN10589046	The Institute for Information Transmission Problems	Solanum lycopersicum	RNA was extracted using RNeasy mini kit (Qiagen) following manufacturers protocol. RNA quality was controlled using capillary electrophoresis on Bioanalyzer 2100 (Agilent).  PolyA mRNA were extracted using TruSeq RNA Sample Prep Kits v2 (Illumina, USA) in 0.4 of the recommended volume due to the small amounts of RNA in some samples. Illumina cDNA libraries were constructed with the NEBNext Ultra II RNA Library Prep Kit for Illumina (New England BioLabs, USA) following the manufacturers protocol in 0.5 of the recommended volume.	Transcriptome map of Solanum lycopersicum	Sol.CA.ad_rep1_HiSeq2000	RNA-Seq	TRANSCRIPTOMIC	PolyA	Solanum lycopersicum	Illumina HiSeq 2000	Micro-Tom	Flowering plant	Russia: Moscow	Mature carpels rep1	Mature carpels
SRR8325106	SRX5136934	SRP173523	SRS4149249	SRA823509	PRJNA507622	SAMN10589046	The Institute for Information Transmission Problems	Solanum lycopersicum	RNA was extracted using RNeasy mini kit (Qiagen) following manufacturers protocol. RNA quality was controlled using capillary electrophoresis on Bioanalyzer 2100 (Agilent).  PolyA mRNA were extracted using TruSeq RNA Sample Prep Kits v2 (Illumina, USA) in 0.4 of the recommended volume due to the small amounts of RNA in some samples. Illumina cDNA libraries were constructed with the NEBNext Ultra II RNA Library Prep Kit for Illumina (New England BioLabs, USA) following the manufacturers protocol in 0.5 of the recommended volume.	Transcriptome map of Solanum lycopersicum	Sol.CA.ad_rep1_NextSeq	RNA-Seq	TRANSCRIPTOMIC	PolyA	Solanum lycopersicum	NextSeq 500	Micro-Tom	Flowering plant	Russia: Moscow	Mature carpels rep1	Mature carpels
SRR8325078	SRX5136959	SRP173523	SRS4149267	SRA823509	PRJNA507622	SAMN10589043	The Institute for Information Transmission Problems	Solanum lycopersicum	RNA was extracted using RNeasy mini kit (Qiagen) following manufacturers protocol. RNA quality was controlled using capillary electrophoresis on Bioanalyzer 2100 (Agilent).  PolyA mRNA were extracted using TruSeq RNA Sample Prep Kits v2 (Illumina, USA) in 0.4 of the recommended volume due to the small amounts of RNA in some samples. Illumina cDNA libraries were constructed with the NEBNext Ultra II RNA Library Prep Kit for Illumina (New England BioLabs, USA) following the manufacturers protocol in 0.5 of the recommended volume.	Transcriptome map of Solanum lycopersicum	Sol.F.ad_rep2_NextSeq	RNA-Seq	TRANSCRIPTOMIC	PolyA	Solanum lycopersicum	NextSeq 500	Micro-Tom	Flowering plant	Russia: Moscow	Mature flower rep2	Flower
SRR8325079	SRX5136958	SRP173523	SRS4149267	SRA823509	PRJNA507622	SAMN10589043	The Institute for Information Transmission Problems	Solanum lycopersicum	RNA was extracted using RNeasy mini kit (Qiagen) following manufacturers protocol. RNA quality was controlled using capillary electrophoresis on Bioanalyzer 2100 (Agilent).  PolyA mRNA were extracted using TruSeq RNA Sample Prep Kits v2 (Illumina, USA) in 0.4 of the recommended volume due to the small amounts of RNA in some samples. Illumina cDNA libraries were constructed with the NEBNext Ultra II RNA Library Prep Kit for Illumina (New England BioLabs, USA) following the manufacturers protocol in 0.5 of the recommended volume.	Transcriptome map of Solanum lycopersicum	Sol.F.ad_rep2_HiSeq2000	RNA-Seq	TRANSCRIPTOMIC	PolyA	Solanum lycopersicum	Illumina HiSeq 2000	Micro-Tom	Flowering plant	Russia: Moscow	Mature flower rep2	Flower
SRR8325076	SRX5136961	SRP173523	SRS4149268	SRA823509	PRJNA507622	SAMN10589042	The Institute for Information Transmission Problems	Solanum lycopersicum	RNA was extracted using RNeasy mini kit (Qiagen) following manufacturers protocol. RNA quality was controlled using capillary electrophoresis on Bioanalyzer 2100 (Agilent).  PolyA mRNA were extracted using TruSeq RNA Sample Prep Kits v2 (Illumina, USA) in 0.4 of the recommended volume due to the small amounts of RNA in some samples. Illumina cDNA libraries were constructed with the NEBNext Ultra II RNA Library Prep Kit for Illumina (New England BioLabs, USA) following the manufacturers protocol in 0.5 of the recommended volume.	Transcriptome map of Solanum lycopersicum	Sol.F.ad_rep1_NextSeq	RNA-Seq	TRANSCRIPTOMIC	PolyA	Solanum lycopersicum	NextSeq 500	Micro-Tom	Flowering plant	Russia: Moscow	Mature flower rep1	Flower
SRR8325077	SRX5136960	SRP173523	SRS4149268	SRA823509	PRJNA507622	SAMN10589042	The Institute for Information Transmission Problems	Solanum lycopersicum	RNA was extracted using RNeasy mini kit (Qiagen) following manufacturers protocol. RNA quality was controlled using capillary electrophoresis on Bioanalyzer 2100 (Agilent).  PolyA mRNA were extracted using TruSeq RNA Sample Prep Kits v2 (Illumina, USA) in 0.4 of the recommended volume due to the small amounts of RNA in some samples. Illumina cDNA libraries were constructed with the NEBNext Ultra II RNA Library Prep Kit for Illumina (New England BioLabs, USA) following the manufacturers protocol in 0.5 of the recommended volume.	Transcriptome map of Solanum lycopersicum	Sol.F.ad_rep1_HiSeq2000	RNA-Seq	TRANSCRIPTOMIC	PolyA	Solanum lycopersicum	Illumina HiSeq 2000	Micro-Tom	Flowering plant	Russia: Moscow	Mature flower rep1	Flower
SRR8325143	SRX5136893	SRP173523	SRS4149224	SRA823509	PRJNA507622	SAMN10589033	The Institute for Information Transmission Problems	Solanum lycopersicum	RNA was extracted using RNeasy mini kit (Qiagen) following manufacturers protocol. RNA quality was controlled using capillary electrophoresis on Bioanalyzer 2100 (Agilent).  PolyA mRNA were extracted using TruSeq RNA Sample Prep Kits v2 (Illumina, USA) in 0.4 of the recommended volume due to the small amounts of RNA in some samples. Illumina cDNA libraries were constructed with the NEBNext Ultra II RNA Library Prep Kit for Illumina (New England BioLabs, USA) following the manufacturers protocol in 0.5 of the recommended volume.	Transcriptome map of Solanum lycopersicum	Sol.L.y_rep2_NextSeq	RNA-Seq	TRANSCRIPTOMIC	PolyA	Solanum lycopersicum	NextSeq 500	Micro-Tom	Plant before flowering	Russia: Moscow	Young leaf rep2	Leaf
SRR8325146	SRX5136894	SRP173523	SRS4149224	SRA823509	PRJNA507622	SAMN10589033	The Institute for Information Transmission Problems	Solanum lycopersicum	RNA was extracted using RNeasy mini kit (Qiagen) following manufacturers protocol. RNA quality was controlled using capillary electrophoresis on Bioanalyzer 2100 (Agilent).  PolyA mRNA were extracted using TruSeq RNA Sample Prep Kits v2 (Illumina, USA) in 0.4 of the recommended volume due to the small amounts of RNA in some samples. Illumina cDNA libraries were constructed with the NEBNext Ultra II RNA Library Prep Kit for Illumina (New England BioLabs, USA) following the manufacturers protocol in 0.5 of the recommended volume.	Transcriptome map of Solanum lycopersicum	Sol.L.y_rep2_HiSeq2000	RNA-Seq	TRANSCRIPTOMIC	PolyA	Solanum lycopersicum	Illumina HiSeq 2000	Micro-Tom	Plant before flowering	Russia: Moscow	Young leaf rep2	Leaf
SRR8325144	SRX5136892	SRP173523	SRS4149223	SRA823509	PRJNA507622	SAMN10589032	The Institute for Information Transmission Problems	Solanum lycopersicum	RNA was extracted using RNeasy mini kit (Qiagen) following manufacturers protocol. RNA quality was controlled using capillary electrophoresis on Bioanalyzer 2100 (Agilent).  PolyA mRNA were extracted using TruSeq RNA Sample Prep Kits v2 (Illumina, USA) in 0.4 of the recommended volume due to the small amounts of RNA in some samples. Illumina cDNA libraries were constructed with the NEBNext Ultra II RNA Library Prep Kit for Illumina (New England BioLabs, USA) following the manufacturers protocol in 0.5 of the recommended volume.	Transcriptome map of Solanum lycopersicum	Sol.L.y_rep1_HiSeq2000	RNA-Seq	TRANSCRIPTOMIC	PolyA	Solanum lycopersicum	Illumina HiSeq 2000	Micro-Tom	Plant before flowering	Russia: Moscow	Young leaf rep1	Leaf
SRR8325145	SRX5136891	SRP173523	SRS4149223	SRA823509	PRJNA507622	SAMN10589032	The Institute for Information Transmission Problems	Solanum lycopersicum	RNA was extracted using RNeasy mini kit (Qiagen) following manufacturers protocol. RNA quality was controlled using capillary electrophoresis on Bioanalyzer 2100 (Agilent).  PolyA mRNA were extracted using TruSeq RNA Sample Prep Kits v2 (Illumina, USA) in 0.4 of the recommended volume due to the small amounts of RNA in some samples. Illumina cDNA libraries were constructed with the NEBNext Ultra II RNA Library Prep Kit for Illumina (New England BioLabs, USA) following the manufacturers protocol in 0.5 of the recommended volume.	Transcriptome map of Solanum lycopersicum	Sol.L.y_rep1_NextSeq	RNA-Seq	TRANSCRIPTOMIC	PolyA	Solanum lycopersicum	NextSeq 500	Micro-Tom	Plant before flowering	Russia: Moscow	Young leaf rep1	Leaf
SRR8325130	SRX5136910	SRP173523	SRS4149235	SRA823509	PRJNA507622	SAMN10589031	The Institute for Information Transmission Problems	Solanum lycopersicum	RNA was extracted using RNeasy mini kit (Qiagen) following manufacturers protocol. RNA quality was controlled using capillary electrophoresis on Bioanalyzer 2100 (Agilent).  PolyA mRNA were extracted using TruSeq RNA Sample Prep Kits v2 (Illumina, USA) in 0.4 of the recommended volume due to the small amounts of RNA in some samples. Illumina cDNA libraries were constructed with the NEBNext Ultra II RNA Library Prep Kit for Illumina (New England BioLabs, USA) following the manufacturers protocol in 0.5 of the recommended volume.	Transcriptome map of Solanum lycopersicum	Sol.M.f_rep2_HiSeq2000	RNA-Seq	TRANSCRIPTOMIC	PolyA	Solanum lycopersicum	Illumina HiSeq 2000	Micro-Tom	Plant before flowering	Russia: Moscow	Inflorescence meristem rep2	IM
SRR8325124	SRX5136913	SRP173523	SRS4149236	SRA823509	PRJNA507622	SAMN10589030	The Institute for Information Transmission Problems	Solanum lycopersicum	RNA was extracted using RNeasy mini kit (Qiagen) following manufacturers protocol. RNA quality was controlled using capillary electrophoresis on Bioanalyzer 2100 (Agilent).  PolyA mRNA were extracted using TruSeq RNA Sample Prep Kits v2 (Illumina, USA) in 0.4 of the recommended volume due to the small amounts of RNA in some samples. Illumina cDNA libraries were constructed with the NEBNext Ultra II RNA Library Prep Kit for Illumina (New England BioLabs, USA) following the manufacturers protocol in 0.5 of the recommended volume.	Transcriptome map of Solanum lycopersicum	Sol.M.f_rep1_NextSeq	RNA-Seq	TRANSCRIPTOMIC	PolyA	Solanum lycopersicum	NextSeq 500	Micro-Tom	Plant before flowering	Russia: Moscow	Inflorescence meristem rep1	IM
SRR8325125	SRX5136912	SRP173523	SRS4149236	SRA823509	PRJNA507622	SAMN10589030	The Institute for Information Transmission Problems	Solanum lycopersicum	RNA was extracted using RNeasy mini kit (Qiagen) following manufacturers protocol. RNA quality was controlled using capillary electrophoresis on Bioanalyzer 2100 (Agilent).  PolyA mRNA were extracted using TruSeq RNA Sample Prep Kits v2 (Illumina, USA) in 0.4 of the recommended volume due to the small amounts of RNA in some samples. Illumina cDNA libraries were constructed with the NEBNext Ultra II RNA Library Prep Kit for Illumina (New England BioLabs, USA) following the manufacturers protocol in 0.5 of the recommended volume.	Transcriptome map of Solanum lycopersicum	Sol.M.f_rep1_HiSeq2000	RNA-Seq	TRANSCRIPTOMIC	PolyA	Solanum lycopersicum	Illumina HiSeq 2000	Micro-Tom	Plant before flowering	Russia: Moscow	Inflorescence meristem rep1	IM
SRR8325127	SRX5136909	SRP173523	SRS4149233	SRA823509	PRJNA507622	SAMN10589029	The Institute for Information Transmission Problems	Solanum lycopersicum	RNA was extracted using RNeasy mini kit (Qiagen) following manufacturers protocol. RNA quality was controlled using capillary electrophoresis on Bioanalyzer 2100 (Agilent).  PolyA mRNA were extracted using TruSeq RNA Sample Prep Kits v2 (Illumina, USA) in 0.4 of the recommended volume due to the small amounts of RNA in some samples. Illumina cDNA libraries were constructed with the NEBNext Ultra II RNA Library Prep Kit for Illumina (New England BioLabs, USA) following the manufacturers protocol in 0.5 of the recommended volume.	Transcriptome map of Solanum lycopersicum	Sol.M_rep2_HiSeq2000	RNA-Seq	TRANSCRIPTOMIC	PolyA	Solanum lycopersicum	Illumina HiSeq 2000	Micro-Tom	Plant before flowering	Russia: Moscow	Shoot apical meristem after transition to flowering rep2	SAM
SRR8325126	SRX5136911	SRP173523	SRS4149237	SRA823509	PRJNA507622	SAMN10589028	The Institute for Information Transmission Problems	Solanum lycopersicum	RNA was extracted using RNeasy mini kit (Qiagen) following manufacturers protocol. RNA quality was controlled using capillary electrophoresis on Bioanalyzer 2100 (Agilent).  PolyA mRNA were extracted using TruSeq RNA Sample Prep Kits v2 (Illumina, USA) in 0.4 of the recommended volume due to the small amounts of RNA in some samples. Illumina cDNA libraries were constructed with the NEBNext Ultra II RNA Library Prep Kit for Illumina (New England BioLabs, USA) following the manufacturers protocol in 0.5 of the recommended volume.	Transcriptome map of Solanum lycopersicum	Sol.M_rep1_HiSeq2000	RNA-Seq	TRANSCRIPTOMIC	PolyA	Solanum lycopersicum	Illumina HiSeq 2000	Micro-Tom	Plant before flowering	Russia: Moscow	Shoot apical meristem after transition to flowering rep1	SAM
SRR8325121	SRX5136915	SRP173523	SRS4149238	SRA823509	PRJNA507622	SAMN10589027	The Institute for Information Transmission Problems	Solanum lycopersicum	RNA was extracted using RNeasy mini kit (Qiagen) following manufacturers protocol. RNA quality was controlled using capillary electrophoresis on Bioanalyzer 2100 (Agilent).  PolyA mRNA were extracted using TruSeq RNA Sample Prep Kits v2 (Illumina, USA) in 0.4 of the recommended volume due to the small amounts of RNA in some samples. Illumina cDNA libraries were constructed with the NEBNext Ultra II RNA Library Prep Kit for Illumina (New England BioLabs, USA) following the manufacturers protocol in 0.5 of the recommended volume.	Transcriptome map of Solanum lycopersicum	Sol.M.v_rep2_NextSeq	RNA-Seq	TRANSCRIPTOMIC	PolyA	Solanum lycopersicum	NextSeq 500	Micro-Tom	Plant before flowering	Russia: Moscow	Shoot apical meristem before transition to flowering rep2	SAM
SRR8325123	SRX5136914	SRP173523	SRS4149238	SRA823509	PRJNA507622	SAMN10589027	The Institute for Information Transmission Problems	Solanum lycopersicum	RNA was extracted using RNeasy mini kit (Qiagen) following manufacturers protocol. RNA quality was controlled using capillary electrophoresis on Bioanalyzer 2100 (Agilent).  PolyA mRNA were extracted using TruSeq RNA Sample Prep Kits v2 (Illumina, USA) in 0.4 of the recommended volume due to the small amounts of RNA in some samples. Illumina cDNA libraries were constructed with the NEBNext Ultra II RNA Library Prep Kit for Illumina (New England BioLabs, USA) following the manufacturers protocol in 0.5 of the recommended volume.	Transcriptome map of Solanum lycopersicum	Sol.M.v_rep2_HiSeq2000	RNA-Seq	TRANSCRIPTOMIC	PolyA	Solanum lycopersicum	Illumina HiSeq 2000	Micro-Tom	Plant before flowering	Russia: Moscow	Shoot apical meristem before transition to flowering rep2	SAM
SRR8325147	SRX5136890	SRP173523	SRS4149222	SRA823509	PRJNA507622	SAMN10589026	The Institute for Information Transmission Problems	Solanum lycopersicum	RNA was extracted using RNeasy mini kit (Qiagen) following manufacturers protocol. RNA quality was controlled using capillary electrophoresis on Bioanalyzer 2100 (Agilent).  PolyA mRNA were extracted using TruSeq RNA Sample Prep Kits v2 (Illumina, USA) in 0.4 of the recommended volume due to the small amounts of RNA in some samples. Illumina cDNA libraries were constructed with the NEBNext Ultra II RNA Library Prep Kit for Illumina (New England BioLabs, USA) following the manufacturers protocol in 0.5 of the recommended volume.	Transcriptome map of Solanum lycopersicum	Sol.M.v_rep1_HiSeq2000	RNA-Seq	TRANSCRIPTOMIC	PolyA	Solanum lycopersicum	Illumina HiSeq 2000	Micro-Tom	Plant before flowering	Russia: Moscow	Shoot apical meristem before transition to flowering rep1	SAM
SRR8325148	SRX5136889	SRP173523	SRS4149222	SRA823509	PRJNA507622	SAMN10589026	The Institute for Information Transmission Problems	Solanum lycopersicum	RNA was extracted using RNeasy mini kit (Qiagen) following manufacturers protocol. RNA quality was controlled using capillary electrophoresis on Bioanalyzer 2100 (Agilent).  PolyA mRNA were extracted using TruSeq RNA Sample Prep Kits v2 (Illumina, USA) in 0.4 of the recommended volume due to the small amounts of RNA in some samples. Illumina cDNA libraries were constructed with the NEBNext Ultra II RNA Library Prep Kit for Illumina (New England BioLabs, USA) following the manufacturers protocol in 0.5 of the recommended volume.	Transcriptome map of Solanum lycopersicum	Sol.M.v_rep1_NextSeq	RNA-Seq	TRANSCRIPTOMIC	PolyA	Solanum lycopersicum	NextSeq 500	Micro-Tom	Plant before flowering	Russia: Moscow	Shoot apical meristem before transition to flowering rep1	SAM
145 - T1																	Sweet cherry			carpel	S1
147 - T1																				carpel	S1
149 - T1   																				carpel	S1
150 - T1																				carpel	S1
135 - T2																				carpel	S2
157 - T2																				carpel	S2
157 - T2_re_a																				carpel	S2
157 - T2_re_b																				carpel	S2
152 - T2																				carpel	S2
155 - T2																				carpel	S2
138 - T3																				carpel	S3
158 - T3																				carpel	S3
153 - T3 																				carpel	S3
154 - T3																				carpel	S3
143 - T4																				carpel	S4
144 - T4																				carpel	S4
148 - T4																				carpel	S4
156 - T4																				carpel	S4
156 - T4_re_a																				carpel	S4
156 - T4_re_b																				carpel	S4
